EESchema Schematic File Version 2
LIBS:ArduinoPC104DevBoard-rescue
LIBS:power
LIBS:device
LIBS:switches
LIBS:relays
LIBS:motors
LIBS:transistors
LIBS:conn
LIBS:linear
LIBS:regul
LIBS:74xx
LIBS:cmos4000
LIBS:adc-dac
LIBS:memory
LIBS:xilinx
LIBS:microcontrollers
LIBS:dsp
LIBS:microchip
LIBS:analog_switches
LIBS:motorola
LIBS:texas
LIBS:intel
LIBS:audio
LIBS:interface
LIBS:digital-audio
LIBS:philips
LIBS:display
LIBS:cypress
LIBS:siliconi
LIBS:opto
LIBS:atmel
LIBS:contrib
LIBS:valves
LIBS:ftdi
LIBS:mylib
LIBS:MCU_Module
LIBS:ArduinoPC104DevBoard-cache
EELAYER 25 0
EELAYER END
$Descr A4 11693 8268
encoding utf-8
Sheet 1 2
Title "Arduino PC104 Development Board"
Date ""
Rev "0.1-180107"
Comp ""
Comment1 ""
Comment2 ""
Comment3 ""
Comment4 ""
$EndDescr
$Comp
L D_Schottky_Small D3
U 1 1 5A5200CC
P 5450 950
F 0 "D3" H 5400 1030 50  0000 L CNN
F 1 "D_Schottky" H 5170 870 50  0000 L CNN
F 2 "Diodes_SMD:D_SMB" V 5450 950 50  0001 C CNN
F 3 "" V 5450 950 50  0001 C CNN
	1    5450 950 
	-1   0    0    1   
$EndComp
$Comp
L CP_Small C7
U 1 1 5A52015B
P 5750 1150
F 0 "C7" H 5760 1220 50  0000 L CNN
F 1 "100uF" H 5760 1070 50  0000 L CNN
F 2 "Capacitors_THT:CP_Radial_D10.0mm_P3.50mm" H 5750 1150 50  0001 C CNN
F 3 "" H 5750 1150 50  0001 C CNN
	1    5750 1150
	1    0    0    -1  
$EndComp
$Comp
L GND #PWR01
U 1 1 5A52098C
P 6150 1250
F 0 "#PWR01" H 6150 1000 50  0001 C CNN
F 1 "GND" H 6150 1100 50  0000 C CNN
F 2 "" H 6150 1250 50  0001 C CNN
F 3 "" H 6150 1250 50  0001 C CNN
	1    6150 1250
	1    0    0    -1  
$EndComp
$Comp
L GND #PWR02
U 1 1 5A5220A3
P 5600 1350
F 0 "#PWR02" H 5600 1100 50  0001 C CNN
F 1 "GND" H 5600 1200 50  0000 C CNN
F 2 "" H 5600 1350 50  0001 C CNN
F 3 "" H 5600 1350 50  0001 C CNN
	1    5600 1350
	1    0    0    -1  
$EndComp
$Comp
L CP_Small C9
U 1 1 5A5225AA
P 6550 1100
F 0 "C9" H 6560 1170 50  0000 L CNN
F 1 "100uF" H 6560 1020 50  0000 L CNN
F 2 "Capacitors_THT:CP_Radial_D10.0mm_P3.50mm" H 6550 1100 50  0001 C CNN
F 3 "" H 6550 1100 50  0001 C CNN
	1    6550 1100
	-1   0    0    -1  
$EndComp
$Comp
L GND #PWR03
U 1 1 5A52260A
P 6550 1250
F 0 "#PWR03" H 6550 1000 50  0001 C CNN
F 1 "GND" H 6550 1100 50  0000 C CNN
F 2 "" H 6550 1250 50  0001 C CNN
F 3 "" H 6550 1250 50  0001 C CNN
	1    6550 1250
	1    0    0    -1  
$EndComp
$Comp
L Crystal_Small Y1
U 1 1 5A52F967
P 10400 4600
F 0 "Y1" H 10400 4700 50  0000 C CNN
F 1 "16MHz" H 10400 4500 42  0000 C CNN
F 2 "Crystals:Crystal_HC49-4H_Vertical" H 10400 4600 50  0001 C CNN
F 3 "" H 10400 4600 50  0001 C CNN
	1    10400 4600
	0    -1   1    0   
$EndComp
$Comp
L C_Small C14
U 1 1 5A52FA69
P 10700 4700
F 0 "C14" V 10650 4750 35  0000 L CNN
F 1 "22p" V 10750 4500 50  0000 L CNN
F 2 "Capacitors_SMD:C_1206" H 10700 4700 50  0001 C CNN
F 3 "" H 10700 4700 50  0001 C CNN
	1    10700 4700
	0    -1   1    0   
$EndComp
$Comp
L C_Small C13
U 1 1 5A52FCF6
P 10700 4500
F 0 "C13" V 10650 4550 35  0000 L CNN
F 1 "22p" V 10750 4300 47  0000 L CNN
F 2 "Capacitors_SMD:C_1206" H 10700 4500 50  0001 C CNN
F 3 "" H 10700 4500 50  0001 C CNN
	1    10700 4500
	0    -1   -1   0   
$EndComp
$Comp
L GND #PWR04
U 1 1 5A530047
P 10850 4600
F 0 "#PWR04" H 10850 4350 50  0001 C CNN
F 1 "GND" H 10850 4450 50  0000 C CNN
F 2 "" H 10850 4600 50  0001 C CNN
F 3 "" H 10850 4600 50  0001 C CNN
	1    10850 4600
	0    -1   -1   0   
$EndComp
$Comp
L GND #PWR05
U 1 1 5A531EA6
P 10750 1450
F 0 "#PWR05" H 10750 1200 50  0001 C CNN
F 1 "GND" H 10750 1300 50  0000 C CNN
F 2 "" H 10750 1450 50  0001 C CNN
F 3 "" H 10750 1450 50  0001 C CNN
	1    10750 1450
	1    0    0    -1  
$EndComp
Text GLabel 10400 4200 2    51   Input ~ 0
MOSI
Text GLabel 10400 4300 2    51   Input ~ 0
MISO
Text GLabel 10400 4400 2    51   Input ~ 0
SCK
Text GLabel 10600 5300 1    35   Input ~ 0
~RESET
Text GLabel 9850 1350 0    51   Input ~ 0
~RESET
Text GLabel 10750 1250 2    51   Input ~ 0
MOSI
Text GLabel 9850 1150 0    51   Input ~ 0
MISO
Text GLabel 9850 1250 0    51   Input ~ 0
SCK
Text GLabel 10050 5500 2    51   Input ~ 0
RXI
Text GLabel 10050 5600 2    51   Input ~ 0
TXO
$Comp
L Fuse_Small F1
U 1 1 5A79DE71
P 1300 1100
F 0 "F1" H 1300 1040 50  0000 C CNN
F 1 "0.5A" H 1300 1160 50  0000 C CNN
F 2 "Resistors_SMD:R_1812" H 1300 1100 50  0001 C CNN
F 3 "" H 1300 1100 50  0001 C CNN
	1    1300 1100
	0    1    1    0   
$EndComp
$Comp
L CP_Small C10
U 1 1 5A7C3C30
P 7900 4150
F 0 "C10" H 7910 4220 50  0000 L CNN
F 1 "10uF" H 7910 4070 50  0000 L CNN
F 2 "Capacitors_THT:CP_Radial_D6.3mm_P2.50mm" H 7900 4150 50  0001 C CNN
F 3 "" H 7900 4150 50  0001 C CNN
	1    7900 4150
	1    0    0    -1  
$EndComp
$Comp
L GND #PWR06
U 1 1 5A7C3FE4
P 7900 4250
F 0 "#PWR06" H 7900 4000 50  0001 C CNN
F 1 "GND" H 7900 4100 50  0000 C CNN
F 2 "" H 7900 4250 50  0001 C CNN
F 3 "" H 7900 4250 50  0001 C CNN
	1    7900 4250
	1    0    0    -1  
$EndComp
$Comp
L Conn_01x06 UART1
U 1 1 5AC521C4
P 10000 2450
F 0 "UART1" H 10000 2800 50  0000 C CNN
F 1 "Conn_01x06" H 10000 2100 50  0001 C CNN
F 2 "Pin_Headers:Pin_Header_Straight_1x06_Pitch2.54mm" H 10000 2450 50  0001 C CNN
F 3 "" H 10000 2450 50  0001 C CNN
	1    10000 2450
	-1   0    0    1   
$EndComp
$Comp
L GND #PWR07
U 1 1 5AC528E5
P 10350 2200
F 0 "#PWR07" H 10350 1950 50  0001 C CNN
F 1 "GND" H 10350 2050 50  0000 C CNN
F 2 "" H 10350 2200 50  0001 C CNN
F 3 "" H 10350 2200 50  0001 C CNN
	1    10350 2200
	0    -1   -1   0   
$EndComp
Text GLabel 10400 2450 2    51   Input ~ 0
RXI
Text GLabel 10400 2550 2    51   Input ~ 0
TXO
Text GLabel 10200 2650 2    51   Input ~ 0
USB_RESET
$Comp
L C_Small C12
U 1 1 5AC54DB7
P 10750 5250
F 0 "C12" H 10760 5320 50  0000 L CNN
F 1 "10n" H 10760 5170 50  0000 L CNN
F 2 "Capacitors_SMD:C_1206" H 10750 5250 50  0001 C CNN
F 3 "" H 10750 5250 50  0001 C CNN
	1    10750 5250
	1    0    0    -1  
$EndComp
$Comp
L ATMEGA328P-AU U5
U 1 1 5AC56E3B
P 9050 5000
F 0 "U5" H 8300 6250 50  0000 L BNN
F 1 "ATMEGA328P-AU" H 9450 3600 50  0000 L BNN
F 2 "Housings_QFP:TQFP-32_7x7mm_Pitch0.8mm" H 9050 5000 50  0001 C CIN
F 3 "" H 9050 5000 50  0001 C CNN
	1    9050 5000
	1    0    0    -1  
$EndComp
$Comp
L GND #PWR08
U 1 1 5AC7267F
P 8100 6250
F 0 "#PWR08" H 8100 6000 50  0001 C CNN
F 1 "GND" H 8100 6100 50  0000 C CNN
F 2 "" H 8100 6250 50  0001 C CNN
F 3 "" H 8100 6250 50  0001 C CNN
	1    8100 6250
	1    0    0    -1  
$EndComp
$Comp
L C_Small C11
U 1 1 5AC74AAD
P 8100 4650
F 0 "C11" H 8110 4720 50  0000 L CNN
F 1 "100n" H 8110 4570 50  0000 L CNN
F 2 "Capacitors_SMD:C_1206" H 8100 4650 50  0001 C CNN
F 3 "" H 8100 4650 50  0001 C CNN
	1    8100 4650
	-1   0    0    -1  
$EndComp
$Comp
L GND #PWR09
U 1 1 5AC74FBB
P 8100 4750
F 0 "#PWR09" H 8100 4500 50  0001 C CNN
F 1 "GND" H 8100 4600 50  0000 C CNN
F 2 "" H 8100 4750 50  0001 C CNN
F 3 "" H 8100 4750 50  0001 C CNN
	1    8100 4750
	1    0    0    -1  
$EndComp
$Comp
L R_Small R9
U 1 1 5ACA0F98
P 10500 5200
F 0 "R9" V 10600 5150 50  0000 L CNN
F 1 "10k" V 10500 5150 39  0000 L CNN
F 2 "Resistors_SMD:R_0805" H 10500 5200 50  0001 C CNN
F 3 "" H 10500 5200 50  0001 C CNN
	1    10500 5200
	-1   0    0    -1  
$EndComp
Text Notes 4750 750  0    79   ~ 0
Power
Text Notes 900  3550 0    79   ~ 0
CAN controller
Text Notes 7600 3800 0    79   ~ 0
μC
Text Notes 9500 750  0    79   ~ 0
Programming
Text Notes 3300 6650 0    79   ~ 0
KiCad flags
$Comp
L AVR-ISP-6 CON1
U 1 1 5AC633DE
P 10300 1250
F 0 "CON1" H 10195 1490 50  0000 C CNN
F 1 "AVR-ISP-6" H 10035 1020 50  0000 L BNN
F 2 "Pin_Headers:Pin_Header_Straight_2x03_Pitch2.54mm" V 9780 1290 50  0001 C CNN
F 3 "" H 10275 1250 50  0001 C CNN
	1    10300 1250
	1    0    0    -1  
$EndComp
$Comp
L FT232RL U1
U 1 1 5AC63A8C
P 2750 1950
F 0 "U1" H 2100 2850 50  0000 L CNN
F 1 "FT232RL" H 3150 2850 50  0000 L CNN
F 2 "Housings_SSOP:SSOP-28_5.3x10.2mm_Pitch0.65mm" H 2750 1950 50  0001 C CNN
F 3 "" H 2750 1950 50  0001 C CNN
	1    2750 1950
	1    0    0    -1  
$EndComp
Text Notes 9700 1950 0    79   ~ 0
UART breakout
Text Notes 650  750  0    79   ~ 0
USB
$Comp
L CP_Small C8
U 1 1 5AC65254
P 5750 2000
F 0 "C8" H 5760 2070 50  0000 L CNN
F 1 "100uF" H 5760 1920 50  0000 L CNN
F 2 "Capacitors_THT:CP_Radial_D10.0mm_P3.50mm" H 5750 2000 50  0001 C CNN
F 3 "" H 5750 2000 50  0001 C CNN
	1    5750 2000
	1    0    0    -1  
$EndComp
$Comp
L GND #PWR010
U 1 1 5AC65337
P 5300 2200
F 0 "#PWR010" H 5300 1950 50  0001 C CNN
F 1 "GND" H 5300 2050 50  0000 C CNN
F 2 "" H 5300 2200 50  0001 C CNN
F 3 "" H 5300 2200 50  0001 C CNN
	1    5300 2200
	1    0    0    -1  
$EndComp
$Comp
L GND #PWR011
U 1 1 5AC653BF
P 5700 2150
F 0 "#PWR011" H 5700 1900 50  0001 C CNN
F 1 "GND" H 5700 2000 50  0000 C CNN
F 2 "" H 5700 2150 50  0001 C CNN
F 3 "" H 5700 2150 50  0001 C CNN
	1    5700 2150
	1    0    0    -1  
$EndComp
$Comp
L +3.3V #PWR012
U 1 1 5AC65A54
P 5750 1750
F 0 "#PWR012" H 5750 1600 50  0001 C CNN
F 1 "+3.3V" H 5750 1890 50  0000 C CNN
F 2 "" H 5750 1750 50  0001 C CNN
F 3 "" H 5750 1750 50  0001 C CNN
	1    5750 1750
	1    0    0    -1  
$EndComp
$Comp
L GND #PWR013
U 1 1 5AC65FA0
P 1900 2750
F 0 "#PWR013" H 1900 2500 50  0001 C CNN
F 1 "GND" H 1900 2600 50  0000 C CNN
F 2 "" H 1900 2750 50  0001 C CNN
F 3 "" H 1900 2750 50  0001 C CNN
	1    1900 2750
	1    0    0    -1  
$EndComp
$Comp
L +5VP #PWR014
U 1 1 5AC66C31
P 3150 850
F 0 "#PWR014" H 3150 700 50  0001 C CNN
F 1 "+5VP" H 3150 990 50  0000 C CNN
F 2 "" H 3150 850 50  0001 C CNN
F 3 "" H 3150 850 50  0001 C CNN
	1    3150 850 
	1    0    0    -1  
$EndComp
$Comp
L GND #PWR015
U 1 1 5AC66CEC
P 950 1950
F 0 "#PWR015" H 950 1700 50  0001 C CNN
F 1 "GND" H 950 1800 50  0000 C CNN
F 2 "" H 950 1950 50  0001 C CNN
F 3 "" H 950 1950 50  0001 C CNN
	1    950  1950
	1    0    0    -1  
$EndComp
$Comp
L C_Small C3
U 1 1 5AC677A4
P 1900 1350
F 0 "C3" H 1910 1420 50  0000 L CNN
F 1 "100n" H 1910 1270 50  0000 L CNN
F 2 "Capacitors_SMD:C_1206" H 1900 1350 50  0001 C CNN
F 3 "" H 1900 1350 50  0001 C CNN
	1    1900 1350
	-1   0    0    -1  
$EndComp
$Comp
L C_Small C1
U 1 1 5AC67A89
P 1650 1050
F 0 "C1" H 1660 1120 50  0000 L CNN
F 1 "100n" H 1660 970 50  0000 L CNN
F 2 "Capacitors_SMD:C_1206" H 1650 1050 50  0001 C CNN
F 3 "" H 1650 1050 50  0001 C CNN
	1    1650 1050
	-1   0    0    -1  
$EndComp
$Comp
L GND #PWR016
U 1 1 5AC67BE5
P 1650 1150
F 0 "#PWR016" H 1650 900 50  0001 C CNN
F 1 "GND" H 1650 1000 50  0000 C CNN
F 2 "" H 1650 1150 50  0001 C CNN
F 3 "" H 1650 1150 50  0001 C CNN
	1    1650 1150
	1    0    0    -1  
$EndComp
NoConn ~ 1950 2150
NoConn ~ 1950 2350
$Comp
L LED_Small D1
U 1 1 5AC69E16
P 3750 2250
F 0 "D1" H 3600 2300 50  0000 L CNN
F 1 "RX" H 3800 2300 50  0000 L CNN
F 2 "LEDs:LED_0805_HandSoldering" V 3750 2250 50  0001 C CNN
F 3 "" V 3750 2250 50  0001 C CNN
	1    3750 2250
	1    0    0    -1  
$EndComp
$Comp
L LED_Small D2
U 1 1 5AC69F70
P 3750 2350
F 0 "D2" H 3600 2400 50  0000 L CNN
F 1 "TX" H 3800 2400 50  0000 L CNN
F 2 "LEDs:LED_0805_HandSoldering" V 3750 2350 50  0001 C CNN
F 3 "" V 3750 2350 50  0001 C CNN
	1    3750 2350
	1    0    0    -1  
$EndComp
$Comp
L R R5
U 1 1 5AC6A610
P 4050 2350
F 0 "R5" V 4130 2350 50  0000 C CNN
F 1 "1k" V 4050 2350 50  0000 C CNN
F 2 "Resistors_SMD:R_0805" V 3980 2350 50  0001 C CNN
F 3 "" H 4050 2350 50  0001 C CNN
	1    4050 2350
	0    1    1    0   
$EndComp
$Comp
L R R4
U 1 1 5AC6AB72
P 4050 2250
F 0 "R4" V 4130 2250 50  0000 C CNN
F 1 "1k" V 4050 2250 50  0000 C CNN
F 2 "Resistors_SMD:R_0805" V 3980 2250 50  0001 C CNN
F 3 "" H 4050 2250 50  0001 C CNN
	1    4050 2250
	0    1    -1   0   
$EndComp
NoConn ~ 3550 2550
NoConn ~ 3550 2650
NoConn ~ 3550 2450
$Comp
L LED_Small D4
U 1 1 5AC6F012
P 7800 6150
F 0 "D4" H 7750 6275 50  0000 L CNN
F 1 "PWR" H 7700 6050 50  0000 L CNN
F 2 "LEDs:LED_0805_HandSoldering" V 7800 6150 50  0001 C CNN
F 3 "" V 7800 6150 50  0001 C CNN
	1    7800 6150
	0    -1   -1   0   
$EndComp
$Comp
L GND #PWR017
U 1 1 5AC6F880
P 7800 6250
F 0 "#PWR017" H 7800 6000 50  0001 C CNN
F 1 "GND" H 7800 6100 50  0000 C CNN
F 2 "" H 7800 6250 50  0001 C CNN
F 3 "" H 7800 6250 50  0001 C CNN
	1    7800 6250
	1    0    0    -1  
$EndComp
$Comp
L Jumper_NC_Small JP6
U 1 1 5AC7027F
P 3750 1650
F 0 "JP6" H 3750 1730 50  0000 C CNN
F 1 "Reset_EN" H 3760 1590 50  0000 C CNN
F 2 "Connectors:GS2" H 3750 1650 50  0001 C CNN
F 3 "" H 3750 1650 50  0001 C CNN
	1    3750 1650
	1    0    0    -1  
$EndComp
$Comp
L C_Small C4
U 1 1 5AC7072E
P 4050 1650
F 0 "C4" H 4060 1720 50  0000 L CNN
F 1 "100n" H 4060 1570 50  0000 L CNN
F 2 "Capacitors_SMD:C_1206" H 4050 1650 50  0001 C CNN
F 3 "" H 4050 1650 50  0001 C CNN
	1    4050 1650
	0    1    -1   0   
$EndComp
Text GLabel 4250 1650 1    51   Input ~ 0
USB_RESET
$Comp
L R R1
U 1 1 5AC70B3B
P 3700 1250
F 0 "R1" V 3750 1400 50  0000 C CNN
F 1 "1k" V 3700 1250 50  0000 C CNN
F 2 "Resistors_SMD:R_0805" V 3630 1250 50  0001 C CNN
F 3 "" H 3700 1250 50  0001 C CNN
	1    3700 1250
	0    1    -1   0   
$EndComp
$Comp
L R R2
U 1 1 5AC70BD1
P 3700 1350
F 0 "R2" V 3750 1500 50  0000 C CNN
F 1 "1k" V 3700 1350 50  0000 C CNN
F 2 "Resistors_SMD:R_0805" V 3630 1350 50  0001 C CNN
F 3 "" H 3700 1350 50  0001 C CNN
	1    3700 1350
	0    1    -1   0   
$EndComp
Text GLabel 3950 1250 2    51   Input ~ 0
RXI
Text GLabel 3950 1350 2    51   Input ~ 0
TXO
$Comp
L SW_SPST-RESCUE-ArduinoPC104DevBoard SW1
U 1 1 5AC72AE7
P 10500 5550
F 0 "SW1" H 10500 5675 50  0000 C CNN
F 1 "Reset" H 10500 5450 50  0000 C CNN
F 2 "Buttons_Switches_SMD:SW_SPST_PTS645" H 10500 5550 50  0001 C CNN
F 3 "" H 10500 5550 50  0001 C CNN
	1    10500 5550
	0    1    1    0   
$EndComp
$Comp
L GND #PWR018
U 1 1 5AC72F93
P 10500 5750
F 0 "#PWR018" H 10500 5500 50  0001 C CNN
F 1 "GND" H 10500 5600 50  0000 C CNN
F 2 "" H 10500 5750 50  0001 C CNN
F 3 "" H 10500 5750 50  0001 C CNN
	1    10500 5750
	1    0    0    -1  
$EndComp
$Comp
L Arduino_UNO_R3 A1
U 1 1 5AC7454F
P 8250 2200
F 0 "A1" H 7950 3350 50  0000 R CNN
F 1 "Arduino_UNO_R3" H 8050 3150 50  0000 R CNN
F 2 "mylib:Arduino_UNO_R3_WithMountingHoles_NoSilkscreen" H 8400 1150 50  0001 L CNN
F 3 "" H 8050 3250 50  0001 C CNN
	1    8250 2200
	1    0    0    -1  
$EndComp
Text Notes 7200 750  0    79   ~ 0
Arduino layout for shields
$Comp
L GND #PWR019
U 1 1 5AC74FA3
P 8250 3400
F 0 "#PWR019" H 8250 3150 50  0001 C CNN
F 1 "GND" H 8250 3250 50  0000 C CNN
F 2 "" H 8250 3400 50  0001 C CNN
F 3 "" H 8250 3400 50  0001 C CNN
	1    8250 3400
	1    0    0    -1  
$EndComp
$Comp
L +3.3V #PWR020
U 1 1 5AC77079
P 8650 1050
F 0 "#PWR020" H 8650 900 50  0001 C CNN
F 1 "+3.3V" H 8650 1190 50  0000 C CNN
F 2 "" H 8650 1050 50  0001 C CNN
F 3 "" H 8650 1050 50  0001 C CNN
	1    8650 1050
	1    0    0    -1  
$EndComp
$Comp
L Jumper_NC_Small JP1
U 1 1 5AC784A1
P 7550 1600
F 0 "JP1" H 7650 1650 50  0000 C CNN
F 1 "EN" H 7450 1650 50  0000 C CNN
F 2 "Connectors:GS2" H 7550 1600 50  0001 C CNN
F 3 "" H 7550 1600 50  0001 C CNN
	1    7550 1600
	1    0    0    -1  
$EndComp
$Comp
L Jumper_NC_Small JP2
U 1 1 5AC78AE2
P 7550 1700
F 0 "JP2" H 7650 1750 50  0000 C CNN
F 1 "EN" H 7450 1750 50  0000 C CNN
F 2 "Connectors:GS2" H 7550 1700 50  0001 C CNN
F 3 "" H 7550 1700 50  0001 C CNN
	1    7550 1700
	1    0    0    -1  
$EndComp
Text GLabel 7400 1600 0    51   Input ~ 0
RXI
Text GLabel 10050 5700 2    51   Input ~ 0
D2
Text GLabel 10050 5800 2    51   Input ~ 0
D3
Text GLabel 10050 5900 2    51   Input ~ 0
D4
Text GLabel 10050 6000 2    51   Input ~ 0
D5
Text GLabel 10050 6100 2    51   Input ~ 0
D6
Text GLabel 10050 6200 2    51   Input ~ 0
D7
Text GLabel 7750 1800 0    51   Input ~ 0
D2
Text GLabel 7750 1900 0    51   Input ~ 0
D3
Text GLabel 7750 2000 0    51   Input ~ 0
D4
Text GLabel 7750 2100 0    51   Input ~ 0
D5
Text GLabel 7750 2300 0    51   Input ~ 0
D7
Text GLabel 7400 1700 0    51   Input ~ 0
TXO
Text GLabel 7750 2400 0    51   Input ~ 0
D8
Text GLabel 7750 2500 0    51   Input ~ 0
D9
Text GLabel 7750 2600 0    51   Input ~ 0
D10
Text GLabel 7750 2700 0    51   Input ~ 0
D11
Text GLabel 7750 2800 0    51   Input ~ 0
D12
Text GLabel 7750 2900 0    51   Input ~ 0
D13
Text GLabel 10050 3900 2    51   Input ~ 0
D8
Text GLabel 10050 4000 2    51   Input ~ 0
D9
Text GLabel 10050 4100 2    51   Input ~ 0
D10
Text GLabel 10050 4200 2    51   Input ~ 0
D11
Text GLabel 10050 4300 2    51   Input ~ 0
D12
Text GLabel 10050 4400 2    51   Input ~ 0
D13
Text GLabel 7750 2200 0    51   Input ~ 0
D6
Text GLabel 8750 2200 2    51   Input ~ 0
A0
Text GLabel 8750 2300 2    51   Input ~ 0
A1
Text GLabel 8750 2400 2    51   Input ~ 0
A2
Text GLabel 8750 2500 2    51   Input ~ 0
A3
Text GLabel 8750 2600 2    51   Input ~ 0
A4
Text GLabel 8750 2700 2    51   Input ~ 0
A5
Text GLabel 8750 2900 2    51   Input ~ 0
A4
Text GLabel 8750 3000 2    51   Input ~ 0
A5
Text GLabel 8750 1600 2    51   Input ~ 0
~RESET
Text GLabel 10050 4750 2    51   Input ~ 0
A0
Text GLabel 10050 4850 2    51   Input ~ 0
A1
Text GLabel 10050 4950 2    51   Input ~ 0
A2
Text GLabel 10050 5050 2    51   Input ~ 0
A3
Text GLabel 10050 5150 2    51   Input ~ 0
A4
Text GLabel 10050 5250 2    51   Input ~ 0
A5
Text GLabel 8150 5250 0    51   Input ~ 0
A6
Text GLabel 8150 5350 0    51   Input ~ 0
A7
Text GLabel 7950 4500 0    60   Input ~ 0
AREF
Text GLabel 8750 2000 2    60   Input ~ 0
AREF
Text GLabel 8150 1200 1    39   Input ~ 0
VIN
Text Notes 9700 1600 0    35   ~ 0
*also part of Arduino layout
Text GLabel 5650 750  0    39   Input ~ 0
VIN
$Comp
L C_Small C6
U 1 1 5AC8EFB1
P 5600 1150
F 0 "C6" H 5610 1220 50  0000 L CNN
F 1 "100n" H 5610 1070 50  0000 L CNN
F 2 "Capacitors_SMD:C_1206" H 5600 1150 50  0001 C CNN
F 3 "" H 5600 1150 50  0001 C CNN
	1    5600 1150
	-1   0    0    -1  
$EndComp
$Comp
L GND #PWR021
U 1 1 5AC8FA09
P 1900 1450
F 0 "#PWR021" H 1900 1200 50  0001 C CNN
F 1 "GND" H 1900 1300 50  0000 C CNN
F 2 "" H 1900 1450 50  0001 C CNN
F 3 "" H 1900 1450 50  0001 C CNN
	1    1900 1450
	1    0    0    -1  
$EndComp
$Comp
L +5V #PWR022
U 1 1 5AC926FB
P 6750 900
F 0 "#PWR022" H 6750 750 50  0001 C CNN
F 1 "+5V" H 6750 1040 50  0000 C CNN
F 2 "" H 6750 900 50  0001 C CNN
F 3 "" H 6750 900 50  0001 C CNN
	1    6750 900 
	1    0    0    -1  
$EndComp
$Comp
L +5V #PWR023
U 1 1 5AC9277B
P 4900 1800
F 0 "#PWR023" H 4900 1650 50  0001 C CNN
F 1 "+5V" H 4900 1940 50  0000 C CNN
F 2 "" H 4900 1800 50  0001 C CNN
F 3 "" H 4900 1800 50  0001 C CNN
	1    4900 1800
	1    0    0    -1  
$EndComp
NoConn ~ 3550 1550
NoConn ~ 3550 1750
NoConn ~ 3550 1850
NoConn ~ 3550 1950
$Comp
L Jumper_NC_Small JP4
U 1 1 5AC95FF4
P 8450 1100
F 0 "JP4" H 8550 1150 50  0000 C CNN
F 1 "EN" H 8350 1150 50  0000 C CNN
F 2 "Connectors:GS2" H 8450 1100 50  0001 C CNN
F 3 "" H 8450 1100 50  0001 C CNN
	1    8450 1100
	1    0    0    -1  
$EndComp
$Comp
L Jumper_NC_Small JP3
U 1 1 5AC97239
P 3000 900
F 0 "JP3" H 3000 1000 50  0000 C CNN
F 1 "EN" H 3000 850 50  0000 C CNN
F 2 "Connectors:GS2" H 3000 900 50  0001 C CNN
F 3 "" H 3000 900 50  0001 C CNN
	1    3000 900 
	1    0    0    -1  
$EndComp
$Comp
L LM358 U3
U 1 1 5AC99AAD
P 5750 2850
F 0 "U3" H 5750 3050 50  0000 L CNN
F 1 "LM358" H 5750 2650 50  0000 L CNN
F 2 "SMD_Packages:SOIC-8-N" H 5750 2850 50  0001 C CNN
F 3 "" H 5750 2850 50  0001 C CNN
	1    5750 2850
	1    0    0    -1  
$EndComp
NoConn ~ 3550 6750
NoConn ~ 3550 7350
$Comp
L GND #PWR024
U 1 1 5AC9A15B
P 5650 3150
F 0 "#PWR024" H 5650 2900 50  0001 C CNN
F 1 "GND" H 5650 3000 50  0000 C CNN
F 2 "" H 5650 3150 50  0001 C CNN
F 3 "" H 5650 3150 50  0001 C CNN
	1    5650 3150
	1    0    0    -1  
$EndComp
$Comp
L +5V #PWR025
U 1 1 5AC9A5F8
P 5650 2550
F 0 "#PWR025" H 5650 2400 50  0001 C CNN
F 1 "+5V" H 5650 2690 50  0000 C CNN
F 2 "" H 5650 2550 50  0001 C CNN
F 3 "" H 5650 2550 50  0001 C CNN
	1    5650 2550
	1    0    0    -1  
$EndComp
$Comp
L +5V #PWR026
U 1 1 5AC9A7C5
P 6650 3150
F 0 "#PWR026" H 6650 3000 50  0001 C CNN
F 1 "+5V" H 6650 3290 50  0000 C CNN
F 2 "" H 6650 3150 50  0001 C CNN
F 3 "" H 6650 3150 50  0001 C CNN
	1    6650 3150
	1    0    0    -1  
$EndComp
$Comp
L +5VP #PWR027
U 1 1 5AC9AADE
P 6150 3150
F 0 "#PWR027" H 6150 3000 50  0001 C CNN
F 1 "+5VP" H 6150 3290 50  0000 C CNN
F 2 "" H 6150 3150 50  0001 C CNN
F 3 "" H 6150 3150 50  0001 C CNN
	1    6150 3150
	1    0    0    -1  
$EndComp
Text Notes 5950 3450 0    28   ~ 0
Disconnects +5V(USB) from +5V\nwhen VIN is present
$Comp
L LM358 U3
U 2 1 5AC99B8A
P 3650 7050
F 0 "U3" H 3650 7250 50  0000 L CNN
F 1 "LM358" H 3650 6850 50  0000 L CNN
F 2 "SMD_Packages:SOIC-8-N" H 3650 7050 50  0001 C CNN
F 3 "" H 3650 7050 50  0001 C CNN
	2    3650 7050
	1    0    0    -1  
$EndComp
NoConn ~ 3350 7150
NoConn ~ 3350 6950
NoConn ~ 3950 7050
$Comp
L +3.3V #PWR028
U 1 1 5AC9C98E
P 5400 2950
F 0 "#PWR028" H 5400 2800 50  0001 C CNN
F 1 "+3.3V" H 5400 3090 50  0000 C CNN
F 2 "" H 5400 2950 50  0001 C CNN
F 3 "" H 5400 2950 50  0001 C CNN
	1    5400 2950
	1    0    0    -1  
$EndComp
$Comp
L R_Small R7
U 1 1 5AC9DBE7
P 5200 2850
F 0 "R7" V 5300 2800 50  0000 L CNN
F 1 "10k" V 5200 2800 39  0000 L CNN
F 2 "Resistors_SMD:R_0805" H 5200 2850 50  0001 C CNN
F 3 "" H 5200 2850 50  0001 C CNN
	1    5200 2850
	-1   0    0    -1  
$EndComp
$Comp
L R_Small R6
U 1 1 5AC9DE47
P 5200 2650
F 0 "R6" V 5300 2600 50  0000 L CNN
F 1 "10k" V 5200 2600 39  0000 L CNN
F 2 "Resistors_SMD:R_0805" H 5200 2650 50  0001 C CNN
F 3 "" H 5200 2650 50  0001 C CNN
	1    5200 2650
	-1   0    0    -1  
$EndComp
$Comp
L GND #PWR029
U 1 1 5AC9DEEF
P 5200 2950
F 0 "#PWR029" H 5200 2700 50  0001 C CNN
F 1 "GND" H 5200 2800 50  0000 C CNN
F 2 "" H 5200 2950 50  0001 C CNN
F 3 "" H 5200 2950 50  0001 C CNN
	1    5200 2950
	1    0    0    -1  
$EndComp
Text GLabel 5150 2500 0    39   Input ~ 0
VIN
Text GLabel 9000 3300 0    51   Input ~ 0
A6
Text GLabel 9000 3400 0    51   Input ~ 0
A7
$Comp
L Conn_01x02 J3
U 1 1 5ACA3709
P 9200 3300
F 0 "J3" H 9200 3450 50  0000 C CNN
F 1 "Extra ADCs" H 9050 3150 50  0000 C CNN
F 2 "Socket_Strips:Socket_Strip_Straight_2x01_Pitch2.54mm" H 9200 3300 50  0001 C CNN
F 3 "" H 9200 3300 50  0001 C CNN
	1    9200 3300
	1    0    0    -1  
$EndComp
$Comp
L +5VP #PWR030
U 1 1 5ACA52E8
P 4300 6950
F 0 "#PWR030" H 4300 6800 50  0001 C CNN
F 1 "+5VP" H 4300 7090 50  0000 C CNN
F 2 "" H 4300 6950 50  0001 C CNN
F 3 "" H 4300 6950 50  0001 C CNN
	1    4300 6950
	1    0    0    -1  
$EndComp
$Comp
L PWR_FLAG #FLG031
U 1 1 5ACA5820
P 4300 6950
F 0 "#FLG031" H 4300 7025 50  0001 C CNN
F 1 "PWR_FLAG" H 4300 7100 50  0000 C CNN
F 2 "" H 4300 6950 50  0001 C CNN
F 3 "" H 4300 6950 50  0001 C CNN
	1    4300 6950
	-1   0    0    1   
$EndComp
Text GLabel 4800 6950 1    39   Input ~ 0
VIN
$Comp
L PWR_FLAG #FLG032
U 1 1 5ACA6CD8
P 4800 6950
F 0 "#FLG032" H 4800 7025 50  0001 C CNN
F 1 "PWR_FLAG" H 4800 7100 50  0000 C CNN
F 2 "" H 4800 6950 50  0001 C CNN
F 3 "" H 4800 6950 50  0001 C CNN
	1    4800 6950
	-1   0    0    1   
$EndComp
$Comp
L MCP2515-I/ST U6
U 1 1 5ACACED9
P 2050 4700
F 0 "U6" H 1650 5475 50  0000 R CNN
F 1 "MCP2515" H 2450 5500 50  0000 R TNN
F 2 "Housings_SSOP:TSSOP-20_4.4x6.5mm_Pitch0.65mm" H 2050 3800 50  0001 C CIN
F 3 "" H 2150 3900 50  0001 C CNN
	1    2050 4700
	1    0    0    -1  
$EndComp
$Comp
L GND #PWR033
U 1 1 5ACADC2B
P 2050 5500
F 0 "#PWR033" H 2050 5250 50  0001 C CNN
F 1 "GND" H 2050 5350 50  0000 C CNN
F 2 "" H 2050 5500 50  0001 C CNN
F 3 "" H 2050 5500 50  0001 C CNN
	1    2050 5500
	1    0    0    -1  
$EndComp
Text GLabel 1450 4100 0    51   Input ~ 0
MOSI
Text GLabel 1450 4200 0    51   Input ~ 0
MISO
Text GLabel 1450 4400 0    51   Input ~ 0
SCK
$Comp
L Crystal_Small Y2
U 1 1 5ACAF656
P 1250 4950
F 0 "Y2" H 1250 5050 50  0000 C CNN
F 1 "16MHz" H 1250 4850 42  0000 C CNN
F 2 "Crystals:Crystal_HC49-4H_Vertical" H 1250 4950 50  0001 C CNN
F 3 "" H 1250 4950 50  0001 C CNN
	1    1250 4950
	0    1    1    0   
$EndComp
$Comp
L C_Small C15
U 1 1 5ACAFC63
P 1050 4850
F 0 "C15" V 1100 4900 50  0000 L CNN
F 1 "22p" V 1100 4650 50  0000 L CNN
F 2 "Capacitors_SMD:C_1206" H 1050 4850 50  0001 C CNN
F 3 "" H 1050 4850 50  0001 C CNN
	1    1050 4850
	0    -1   -1   0   
$EndComp
$Comp
L C_Small C16
U 1 1 5ACAFF75
P 1050 5050
F 0 "C16" V 1000 5100 50  0000 L CNN
F 1 "22p" V 1100 4850 50  0000 L CNN
F 2 "Capacitors_SMD:C_1206" H 1050 5050 50  0001 C CNN
F 3 "" H 1050 5050 50  0001 C CNN
	1    1050 5050
	0    -1   1    0   
$EndComp
$Comp
L GND #PWR034
U 1 1 5ACB065E
P 900 5100
F 0 "#PWR034" H 900 4850 50  0001 C CNN
F 1 "GND" H 900 4950 50  0000 C CNN
F 2 "" H 900 5100 50  0001 C CNN
F 3 "" H 900 5100 50  0001 C CNN
	1    900  5100
	1    0    0    -1  
$EndComp
NoConn ~ 1450 5100
NoConn ~ 2650 5000
NoConn ~ 2650 5100
NoConn ~ 2650 5200
NoConn ~ 2650 4800
NoConn ~ 2650 4900
$Comp
L GS3 J4
U 1 1 5ACB20B1
P 1000 4300
F 0 "J4" H 1000 4500 50  0000 C CNN
F 1 "GS3" H 1050 4101 50  0001 C CNN
F 2 "Connectors:GS3" V 1088 4226 50  0001 C CNN
F 3 "" H 1000 4300 50  0001 C CNN
	1    1000 4300
	1    0    0    -1  
$EndComp
Text GLabel 850  4200 0    51   Input ~ 0
D10
Text GLabel 850  4400 0    51   Input ~ 0
D7
Text GLabel 6600 4350 2    39   Input ~ 0
CAN1_H
Text GLabel 6600 4550 2    39   Input ~ 0
CAN1_L
Text GLabel 2650 4200 2    51   Input ~ 0
CAN_TX
Text GLabel 2650 4100 2    51   Input ~ 0
CAN_RX
$Comp
L GND #PWR035
U 1 1 5ACBB118
P 4900 5450
F 0 "#PWR035" H 4900 5200 50  0001 C CNN
F 1 "GND" H 4900 5300 50  0000 C CNN
F 2 "" H 4900 5450 50  0001 C CNN
F 3 "" H 4900 5450 50  0001 C CNN
	1    4900 5450
	1    0    0    -1  
$EndComp
$Comp
L GND #PWR036
U 1 1 5ACBB1DA
P 6050 4850
F 0 "#PWR036" H 6050 4600 50  0001 C CNN
F 1 "GND" H 6050 4700 50  0000 C CNN
F 2 "" H 6050 4850 50  0001 C CNN
F 3 "" H 6050 4850 50  0001 C CNN
	1    6050 4850
	1    0    0    -1  
$EndComp
$Comp
L GND #PWR037
U 1 1 5ACBB29C
P 6050 6100
F 0 "#PWR037" H 6050 5850 50  0001 C CNN
F 1 "GND" H 6050 5950 50  0000 C CNN
F 2 "" H 6050 6100 50  0001 C CNN
F 3 "" H 6050 6100 50  0001 C CNN
	1    6050 6100
	1    0    0    -1  
$EndComp
Text GLabel 6600 5600 2    39   Input ~ 0
CAN2_H
Text GLabel 6600 5800 2    39   Input ~ 0
CAN2_L
$Comp
L +5V #PWR038
U 1 1 5ACBD7EF
P 6050 4050
F 0 "#PWR038" H 6050 3900 50  0001 C CNN
F 1 "+5V" H 6050 4190 50  0000 C CNN
F 2 "" H 6050 4050 50  0001 C CNN
F 3 "" H 6050 4050 50  0001 C CNN
	1    6050 4050
	1    0    0    -1  
$EndComp
$Comp
L +5V #PWR039
U 1 1 5ACBDBE5
P 6050 5300
F 0 "#PWR039" H 6050 5150 50  0001 C CNN
F 1 "+5V" H 6050 5440 50  0000 C CNN
F 2 "" H 6050 5300 50  0001 C CNN
F 3 "" H 6050 5300 50  0001 C CNN
	1    6050 5300
	1    0    0    -1  
$EndComp
Text GLabel 4550 4750 0    51   Input ~ 0
CAN_RX
Text GLabel 4550 5100 0    51   Input ~ 0
CAN_TX
Text GLabel 4000 4650 0    51   Input ~ 0
D5
Text Notes 3850 3750 0    79   ~ 0
CAN multiplexer
Text GLabel 950  4000 0    39   Input ~ 0
~CAN_CS
Text Notes 950  3650 0    39   ~ 0
*based on Sparkfun CAN Bus Shield v13a
Text GLabel 3000 4900 2    51   Input ~ 0
D2
Text GLabel 3000 4500 2    51   Input ~ 0
D3
Text GLabel 2800 4350 2    51   Input ~ 0
CAN_INT
Text GLabel 2650 5300 2    51   Input ~ 0
~RESET
$Comp
L R_Small R8
U 1 1 5ACEE436
P 7800 5950
F 0 "R8" V 7900 5900 50  0000 L CNN
F 1 "1k" V 7800 5900 39  0000 L CNN
F 2 "Resistors_SMD:R_0805" H 7800 5950 50  0001 C CNN
F 3 "" H 7800 5950 50  0001 C CNN
	1    7800 5950
	-1   0    0    -1  
$EndComp
$Comp
L ADG787 U7
U 1 1 5ACB9CC4
P 5000 4900
F 0 "U7" H 5350 5550 60  0000 C CNN
F 1 "ADG787" H 5250 5450 60  0000 C CNN
F 2 "Housings_SSOP:MSOP-10_3x3mm_Pitch0.5mm" H 5100 4850 60  0001 C CNN
F 3 "http://www.analog.com/media/en/technical-documentation/data-sheets/ADG787.pdf" H 4350 4200 60  0001 C CNN
	1    5000 4900
	-1   0    0    -1  
$EndComp
$Sheet
S 5400 6750 750  200 
U 5ACFE695
F0 "PCB Connectors" 79
F1 "Connectors.sch" 79
$EndSheet
$Comp
L Conn_01x02 J2
U 1 1 5B0A5B43
P 5100 1050
F 0 "J2" H 5100 1200 50  0000 C CNN
F 1 "EXTERNAL" V 5200 1050 50  0000 C CNN
F 2 "Socket_Strips:Socket_Strip_Straight_2x01_Pitch2.54mm" H 5100 1050 50  0001 C CNN
F 3 "" H 5100 1050 50  0001 C CNN
	1    5100 1050
	-1   0    0    1   
$EndComp
$Comp
L LM1117-5.0-RESCUE-ArduinoPC104DevBoard U2
U 1 1 5B0A5C6F
P 6150 950
F 0 "U2" H 6250 700 50  0000 C CNN
F 1 "LM1117-5.0" H 6150 1200 50  0000 C CNN
F 2 "TO_SOT_Packages_SMD:TO-252-3_TabPin4" H 6150 950 50  0001 C CNN
F 3 "" H 6150 950 50  0001 C CNN
	1    6150 950 
	1    0    0    -1  
$EndComp
$Comp
L PESD1CAN_215 D5
U 1 1 5B0B51F2
P 1000 6950
F 0 "D5" H 750 7200 60  0000 C CNN
F 1 "PESD1CAN_215" H 1000 6700 60  0000 C CNN
F 2 "digikey-footprints:SOT-23-3" H 1200 7150 60  0001 L CNN
F 3 "https://assets.nexperia.com/documents/data-sheet/PESD1CAN.pdf" H 1200 7250 60  0001 L CNN
F 4 "1727-3817-1-ND" H 1200 7350 60  0001 L CNN "Digi-Key_PN"
F 5 "PESD1CAN,215" H 1200 7450 60  0001 L CNN "MPN"
F 6 "Circuit Protection" H 1200 7550 60  0001 L CNN "Category"
F 7 "TVS - Diodes" H 1200 7650 60  0001 L CNN "Family"
F 8 "https://assets.nexperia.com/documents/data-sheet/PESD1CAN.pdf" H 1200 7750 60  0001 L CNN "DK_Datasheet_Link"
F 9 "/product-detail/en/nexperia-usa-inc/PESD1CAN,215/1727-3817-1-ND/1530822" H 1200 7850 60  0001 L CNN "DK_Detail_Page"
F 10 "TVS DIODE 24V 70V SOT23" H 1200 7950 60  0001 L CNN "Description"
F 11 "Nexperia USA Inc." H 1200 8050 60  0001 L CNN "Manufacturer"
F 12 "Active" H 1200 8150 60  0001 L CNN "Status"
	1    1000 6950
	0    -1   1    0   
$EndComp
$Comp
L GND #PWR040
U 1 1 5B0B5ACA
P 1000 7450
F 0 "#PWR040" H 1000 7200 50  0001 C CNN
F 1 "GND" H 1000 7300 50  0000 C CNN
F 2 "" H 1000 7450 50  0001 C CNN
F 3 "" H 1000 7450 50  0001 C CNN
	1    1000 7450
	1    0    0    -1  
$EndComp
Text GLabel 1100 6450 1    39   Input ~ 0
CAN1_L
Text GLabel 900  6450 1    39   Input ~ 0
CAN1_H
$Comp
L PESD1CAN_215 D6
U 1 1 5B0B8527
P 1700 6950
F 0 "D6" H 1450 7200 60  0000 C CNN
F 1 "PESD1CAN_215" H 1700 6700 60  0000 C CNN
F 2 "digikey-footprints:SOT-23-3" H 1900 7150 60  0001 L CNN
F 3 "https://assets.nexperia.com/documents/data-sheet/PESD1CAN.pdf" H 1900 7250 60  0001 L CNN
F 4 "1727-3817-1-ND" H 1900 7350 60  0001 L CNN "Digi-Key_PN"
F 5 "PESD1CAN,215" H 1900 7450 60  0001 L CNN "MPN"
F 6 "Circuit Protection" H 1900 7550 60  0001 L CNN "Category"
F 7 "TVS - Diodes" H 1900 7650 60  0001 L CNN "Family"
F 8 "https://assets.nexperia.com/documents/data-sheet/PESD1CAN.pdf" H 1900 7750 60  0001 L CNN "DK_Datasheet_Link"
F 9 "/product-detail/en/nexperia-usa-inc/PESD1CAN,215/1727-3817-1-ND/1530822" H 1900 7850 60  0001 L CNN "DK_Detail_Page"
F 10 "TVS DIODE 24V 70V SOT23" H 1900 7950 60  0001 L CNN "Description"
F 11 "Nexperia USA Inc." H 1900 8050 60  0001 L CNN "Manufacturer"
F 12 "Active" H 1900 8150 60  0001 L CNN "Status"
	1    1700 6950
	0    -1   1    0   
$EndComp
$Comp
L GND #PWR041
U 1 1 5B0B852D
P 1700 7450
F 0 "#PWR041" H 1700 7200 50  0001 C CNN
F 1 "GND" H 1700 7300 50  0000 C CNN
F 2 "" H 1700 7450 50  0001 C CNN
F 3 "" H 1700 7450 50  0001 C CNN
	1    1700 7450
	1    0    0    -1  
$EndComp
Text GLabel 1800 6450 1    39   Input ~ 0
CAN2_L
Text GLabel 1600 6450 1    39   Input ~ 0
CAN2_H
Text GLabel 2400 6700 1    39   Input ~ 0
CAN1_L
Text GLabel 2200 6700 1    39   Input ~ 0
CAN1_H
Text GLabel 2650 6700 1    39   Input ~ 0
CAN2_L
Text GLabel 2850 6700 1    39   Input ~ 0
CAN2_H
$Comp
L R_Small R16
U 1 1 5B0BAAD4
P 2200 6800
F 0 "R16" V 2300 6750 50  0000 L CNN
F 1 "100" V 2200 6750 39  0000 L CNN
F 2 "Resistors_SMD:R_0805" H 2200 6800 50  0001 C CNN
F 3 "" H 2200 6800 50  0001 C CNN
	1    2200 6800
	-1   0    0    -1  
$EndComp
$Comp
L R_Small R17
U 1 1 5B0BB64D
P 2400 6800
F 0 "R17" V 2500 6750 50  0000 L CNN
F 1 "100" V 2400 6750 39  0000 L CNN
F 2 "Resistors_SMD:R_0805" H 2400 6800 50  0001 C CNN
F 3 "" H 2400 6800 50  0001 C CNN
	1    2400 6800
	-1   0    0    -1  
$EndComp
$Comp
L R_Small R18
U 1 1 5B0BB775
P 2650 6800
F 0 "R18" V 2750 6750 50  0000 L CNN
F 1 "100" V 2650 6750 39  0000 L CNN
F 2 "Resistors_SMD:R_0805" H 2650 6800 50  0001 C CNN
F 3 "" H 2650 6800 50  0001 C CNN
	1    2650 6800
	-1   0    0    -1  
$EndComp
$Comp
L R_Small R19
U 1 1 5B0BB8AD
P 2850 6800
F 0 "R19" V 2950 6750 50  0000 L CNN
F 1 "100" V 2850 6750 39  0000 L CNN
F 2 "Resistors_SMD:R_0805" H 2850 6800 50  0001 C CNN
F 3 "" H 2850 6800 50  0001 C CNN
	1    2850 6800
	-1   0    0    -1  
$EndComp
$Comp
L C_Small C18
U 1 1 5B0BD2A1
P 2200 7000
F 0 "C18" V 2150 6800 50  0000 L CNN
F 1 "560pF" V 2250 6800 50  0000 L CNN
F 2 "Capacitors_SMD:C_0805" H 2200 7000 50  0001 C CNN
F 3 "" H 2200 7000 50  0001 C CNN
	1    2200 7000
	1    0    0    -1  
$EndComp
$Comp
L GND #PWR042
U 1 1 5B0BDA39
P 2300 7250
F 0 "#PWR042" H 2300 7000 50  0001 C CNN
F 1 "GND" H 2300 7100 50  0000 C CNN
F 2 "" H 2300 7250 50  0001 C CNN
F 3 "" H 2300 7250 50  0001 C CNN
	1    2300 7250
	1    0    0    -1  
$EndComp
$Comp
L C_Small C19
U 1 1 5B0BE348
P 2400 7000
F 0 "C19" V 2350 6800 50  0000 L CNN
F 1 "560pF" V 2450 6800 50  0000 L CNN
F 2 "Capacitors_SMD:C_0805" H 2400 7000 50  0001 C CNN
F 3 "" H 2400 7000 50  0001 C CNN
	1    2400 7000
	1    0    0    -1  
$EndComp
$Comp
L C_Small C20
U 1 1 5B0BE8BD
P 2650 7000
F 0 "C20" V 2600 6800 50  0000 L CNN
F 1 "560pF" V 2700 6800 50  0000 L CNN
F 2 "Capacitors_SMD:C_0805" H 2650 7000 50  0001 C CNN
F 3 "" H 2650 7000 50  0001 C CNN
	1    2650 7000
	1    0    0    -1  
$EndComp
$Comp
L GND #PWR043
U 1 1 5B0BE8C3
P 2750 7250
F 0 "#PWR043" H 2750 7000 50  0001 C CNN
F 1 "GND" H 2750 7100 50  0000 C CNN
F 2 "" H 2750 7250 50  0001 C CNN
F 3 "" H 2750 7250 50  0001 C CNN
	1    2750 7250
	1    0    0    -1  
$EndComp
$Comp
L C_Small C21
U 1 1 5B0BE8CB
P 2850 7000
F 0 "C21" V 2800 6800 50  0000 L CNN
F 1 "560pF" V 2900 6800 50  0000 L CNN
F 2 "Capacitors_SMD:C_0805" H 2850 7000 50  0001 C CNN
F 3 "" H 2850 7000 50  0001 C CNN
	1    2850 7000
	1    0    0    -1  
$EndComp
Text Notes 650  6100 0    60   ~ 0
CAN protection (optional)
$Comp
L R_Small R13
U 1 1 5B0C393A
P 5700 6100
F 0 "R13" V 5800 6050 50  0000 L CNN
F 1 "4k7" V 5700 6050 39  0000 L CNN
F 2 "Resistors_SMD:R_0805" H 5700 6100 50  0001 C CNN
F 3 "" H 5700 6100 50  0001 C CNN
	1    5700 6100
	0    -1   1    0   
$EndComp
$Comp
L MCP2551-I/SN U9
U 1 1 5B0ACCDB
P 6050 5700
F 0 "U9" H 5650 6050 50  0000 L CNN
F 1 "MCP2551-I/SN" H 6150 6050 50  0000 L CNN
F 2 "Housings_SOIC:SOIC-8_3.9x4.9mm_Pitch1.27mm" H 6050 5200 50  0001 C CIN
F 3 "" H 6050 5700 50  0001 C CNN
	1    6050 5700
	1    0    0    -1  
$EndComp
$Comp
L R_Small R11
U 1 1 5B0C4A2A
P 5700 4850
F 0 "R11" V 5800 4800 50  0000 L CNN
F 1 "4k7" V 5700 4800 39  0000 L CNN
F 2 "Resistors_SMD:R_0805" H 5700 4850 50  0001 C CNN
F 3 "" H 5700 4850 50  0001 C CNN
	1    5700 4850
	0    -1   1    0   
$EndComp
$Comp
L C_Small C17
U 1 1 5B0C9265
P 5100 5950
F 0 "C17" V 5000 5850 50  0000 L CNN
F 1 "0.1uF" V 5200 5850 50  0000 L CNN
F 2 "Capacitors_SMD:C_0805" H 5100 5950 50  0001 C CNN
F 3 "" H 5100 5950 50  0001 C CNN
	1    5100 5950
	1    0    0    -1  
$EndComp
$Comp
L GND #PWR044
U 1 1 5B0C9B1F
P 5100 6050
F 0 "#PWR044" H 5100 5800 50  0001 C CNN
F 1 "GND" H 5100 5900 50  0000 C CNN
F 2 "" H 5100 6050 50  0001 C CNN
F 3 "" H 5100 6050 50  0001 C CNN
	1    5100 6050
	1    0    0    -1  
$EndComp
$Comp
L Conn_01x01 J13
U 1 1 5B0B7028
P 4200 4150
F 0 "J13" H 4200 4250 50  0000 C CNN
F 1 "CONN_01X01" V 4300 4150 50  0001 C CNN
F 2 "Socket_Strips:Socket_Strip_Straight_1x01_Pitch2.54mm" H 4200 4150 50  0001 C CNN
F 3 "" H 4200 4150 50  0001 C CNN
	1    4200 4150
	0    1    -1   0   
$EndComp
$Comp
L Conn_01x02 J14
U 1 1 5B0BA430
P 3100 5550
F 0 "J14" H 3100 5700 50  0000 C CNN
F 1 "CAN_DBG1" V 3200 5550 50  0000 C CNN
F 2 "Socket_Strips:Socket_Strip_Straight_2x01_Pitch2.54mm" H 3100 5550 50  0001 C CNN
F 3 "" H 3100 5550 50  0001 C CNN
	1    3100 5550
	1    0    0    -1  
$EndComp
Text GLabel 2900 5550 0    51   Input ~ 0
CAN_RX
Text GLabel 2900 5650 0    51   Input ~ 0
CAN_TX
$Comp
L R_Small R12
U 1 1 5B0BFDA8
P 6600 5700
F 0 "R12" V 6700 5650 50  0000 L CNN
F 1 "120" V 6600 5650 39  0000 L CNN
F 2 "Resistors_SMD:R_0805" H 6600 5700 50  0001 C CNN
F 3 "" H 6600 5700 50  0001 C CNN
	1    6600 5700
	1    0    0    1   
$EndComp
$Comp
L R_Small R10
U 1 1 5B0C1124
P 6600 4450
F 0 "R10" V 6700 4400 50  0000 L CNN
F 1 "120" V 6600 4400 39  0000 L CNN
F 2 "Resistors_SMD:R_0805" H 6600 4450 50  0001 C CNN
F 3 "" H 6600 4450 50  0001 C CNN
	1    6600 4450
	1    0    0    -1  
$EndComp
$Comp
L VCC #PWR045
U 1 1 5B0C90CB
P 8100 3850
F 0 "#PWR045" H 8100 3700 50  0001 C CNN
F 1 "VCC" H 8100 4000 50  0000 C CNN
F 2 "" H 8100 3850 50  0001 C CNN
F 3 "" H 8100 3850 50  0001 C CNN
	1    8100 3850
	1    0    0    -1  
$EndComp
$Comp
L VCC #PWR046
U 1 1 5B0CA2C8
P 10500 5100
F 0 "#PWR046" H 10500 4950 50  0001 C CNN
F 1 "VCC" H 10500 5250 50  0000 C CNN
F 2 "" H 10500 5100 50  0001 C CNN
F 3 "" H 10500 5100 50  0001 C CNN
	1    10500 5100
	1    0    0    -1  
$EndComp
$Comp
L VCC #PWR047
U 1 1 5B0CBD65
P 10200 2350
F 0 "#PWR047" H 10200 2200 50  0001 C CNN
F 1 "VCC" H 10200 2500 50  0000 C CNN
F 2 "" H 10200 2350 50  0001 C CNN
F 3 "" H 10200 2350 50  0001 C CNN
	1    10200 2350
	0    1    1    0   
$EndComp
$Comp
L VCC #PWR048
U 1 1 5B0CC819
P 10750 1100
F 0 "#PWR048" H 10750 950 50  0001 C CNN
F 1 "VCC" H 10750 1250 50  0000 C CNN
F 2 "" H 10750 1100 50  0001 C CNN
F 3 "" H 10750 1100 50  0001 C CNN
	1    10750 1100
	1    0    0    -1  
$EndComp
$Comp
L VCC #PWR049
U 1 1 5B0CDC14
P 8750 1800
F 0 "#PWR049" H 8750 1650 50  0001 C CNN
F 1 "VCC" H 8750 1950 50  0000 C CNN
F 2 "" H 8750 1800 50  0001 C CNN
F 3 "" H 8750 1800 50  0001 C CNN
	1    8750 1800
	0    1    1    0   
$EndComp
$Comp
L VCC #PWR050
U 1 1 5B0D03F2
P 8900 1400
F 0 "#PWR050" H 8900 1250 50  0001 C CNN
F 1 "VCC" H 8900 1550 50  0000 C CNN
F 2 "" H 8900 1400 50  0001 C CNN
F 3 "" H 8900 1400 50  0001 C CNN
	1    8900 1400
	0    1    1    0   
$EndComp
$Comp
L VCC #PWR051
U 1 1 5B0D3AC6
P 7800 5850
F 0 "#PWR051" H 7800 5700 50  0001 C CNN
F 1 "VCC" H 7800 6000 50  0000 C CNN
F 2 "" H 7800 5850 50  0001 C CNN
F 3 "" H 7800 5850 50  0001 C CNN
	1    7800 5850
	1    0    0    -1  
$EndComp
$Comp
L VCC #PWR052
U 1 1 5B0D3D46
P 6150 1950
F 0 "#PWR052" H 6150 1800 50  0001 C CNN
F 1 "VCC" H 6150 2100 50  0000 C CNN
F 2 "" H 6150 1950 50  0001 C CNN
F 3 "" H 6150 1950 50  0001 C CNN
	1    6150 1950
	-1   0    0    1   
$EndComp
$Comp
L +5V #PWR053
U 1 1 5B0D4279
P 5950 1800
F 0 "#PWR053" H 5950 1650 50  0001 C CNN
F 1 "+5V" H 5950 1940 50  0000 C CNN
F 2 "" H 5950 1800 50  0001 C CNN
F 3 "" H 5950 1800 50  0001 C CNN
	1    5950 1800
	1    0    0    -1  
$EndComp
$Comp
L +3.3V #PWR054
U 1 1 5B0D4CA6
P 6350 1800
F 0 "#PWR054" H 6350 1650 50  0001 C CNN
F 1 "+3.3V" H 6350 1940 50  0000 C CNN
F 2 "" H 6350 1800 50  0001 C CNN
F 3 "" H 6350 1800 50  0001 C CNN
	1    6350 1800
	1    0    0    -1  
$EndComp
Text Notes 6000 2300 0    28   ~ 0
System power \nselector
$Comp
L USB_OTG J11
U 1 1 5B0DE994
P 950 1550
F 0 "J11" H 750 2000 50  0000 L CNN
F 1 "USB_MINI" H 750 1900 50  0000 L CNN
F 2 "Connector_USB:USB_Mini-B_Lumberg_2486_01_Horizontal" H 1100 1500 50  0001 C CNN
F 3 "" H 1100 1500 50  0001 C CNN
	1    950  1550
	1    0    0    -1  
$EndComp
NoConn ~ 1250 1750
Text Notes 3200 900  0    28   ~ 0
USB power \ncan be used
$Comp
L GND #PWR055
U 1 1 5AC65DC1
P 2750 2950
F 0 "#PWR055" H 2750 2700 50  0001 C CNN
F 1 "GND" H 2750 2800 50  0000 C CNN
F 2 "" H 2750 2950 50  0001 C CNN
F 3 "" H 2750 2950 50  0001 C CNN
	1    2750 2950
	1    0    0    -1  
$EndComp
$Comp
L VCC #PWR056
U 1 1 5B0ED81D
P 2050 3900
F 0 "#PWR056" H 2050 3750 50  0001 C CNN
F 1 "VCC" H 2050 4050 50  0000 C CNN
F 2 "" H 2050 3900 50  0001 C CNN
F 3 "" H 2050 3900 50  0001 C CNN
	1    2050 3900
	1    0    0    -1  
$EndComp
Text Notes 9750 2050 0    35   ~ 0
to bypass USB
Text Notes 6150 5250 0    35   ~ 0
needs >=4.3V
Text Notes 6150 4000 0    35   ~ 0
needs >=4.3V
$Comp
L VCC #PWR057
U 1 1 5B0FC11B
P 5000 4350
F 0 "#PWR057" H 5000 4200 50  0001 C CNN
F 1 "VCC" H 5000 4500 50  0000 C CNN
F 2 "" H 5000 4350 50  0001 C CNN
F 3 "" H 5000 4350 50  0001 C CNN
	1    5000 4350
	1    0    0    -1  
$EndComp
Text GLabel 4000 5950 0    39   Input ~ 0
CAN1_H
Text GLabel 4000 6050 0    39   Input ~ 0
CAN1_L
Text GLabel 4500 5950 2    39   Input ~ 0
CAN2_H
Text GLabel 4500 6050 2    39   Input ~ 0
CAN2_L
$Comp
L GND #PWR058
U 1 1 5B12920B
P 4000 6150
F 0 "#PWR058" H 4000 5900 50  0001 C CNN
F 1 "GND" H 4000 6000 50  0000 C CNN
F 2 "" H 4000 6150 50  0001 C CNN
F 3 "" H 4000 6150 50  0001 C CNN
	1    4000 6150
	0    1    1    0   
$EndComp
$Comp
L GND #PWR059
U 1 1 5B12943C
P 4500 6150
F 0 "#PWR059" H 4500 5900 50  0001 C CNN
F 1 "GND" H 4500 6000 50  0000 C CNN
F 2 "" H 4500 6150 50  0001 C CNN
F 3 "" H 4500 6150 50  0001 C CNN
	1    4500 6150
	0    -1   -1   0   
$EndComp
$Comp
L VCC #PWR060
U 1 1 5B12E349
P 5100 5850
F 0 "#PWR060" H 5100 5700 50  0001 C CNN
F 1 "VCC" H 5100 6000 50  0000 C CNN
F 2 "" H 5100 5850 50  0001 C CNN
F 3 "" H 5100 5850 50  0001 C CNN
	1    5100 5850
	1    0    0    -1  
$EndComp
$Comp
L C_Small C2
U 1 1 5B130622
P 1850 1050
F 0 "C2" H 1860 1120 50  0000 L CNN
F 1 "10u" H 1860 970 50  0000 L CNN
F 2 "Capacitors_SMD:C_1206" H 1850 1050 50  0001 C CNN
F 3 "" H 1850 1050 50  0001 C CNN
	1    1850 1050
	1    0    0    -1  
$EndComp
NoConn ~ 5550 5800
Text Label 4200 4650 0    47   ~ 0
CAN_SEL
$Comp
L +5V #PWR061
U 1 1 5B17EC62
P 6600 1750
F 0 "#PWR061" H 6600 1600 50  0001 C CNN
F 1 "+5V" H 6600 1890 50  0000 C CNN
F 2 "" H 6600 1750 50  0001 C CNN
F 3 "" H 6600 1750 50  0001 C CNN
	1    6600 1750
	1    0    0    -1  
$EndComp
$Comp
L Jumper_NO_Small JP14
U 1 1 5B17F971
P 6600 1850
F 0 "JP14" H 6600 1930 50  0000 C CNN
F 1 "Jumper_NO_Small" H 6610 1790 50  0001 C CNN
F 2 "Connectors:GS2" H 6600 1850 50  0001 C CNN
F 3 "" H 6600 1850 50  0001 C CNN
	1    6600 1850
	0    -1   -1   0   
$EndComp
Text GLabel 6600 1950 3    47   Input ~ 0
H2_5V
Text GLabel 6800 1950 3    47   Input ~ 0
H2_3V3
$Comp
L Jumper_NO_Small JP15
U 1 1 5B180C39
P 6800 1850
F 0 "JP15" H 6800 1930 50  0000 C CNN
F 1 "Jumper_NO_Small" H 6810 1790 50  0001 C CNN
F 2 "Connectors:GS2" H 6800 1850 50  0001 C CNN
F 3 "" H 6800 1850 50  0001 C CNN
	1    6800 1850
	0    -1   -1   0   
$EndComp
$Comp
L +3.3V #PWR062
U 1 1 5B180D7B
P 6800 1750
F 0 "#PWR062" H 6800 1600 50  0001 C CNN
F 1 "+3.3V" H 6800 1890 50  0000 C CNN
F 2 "" H 6800 1750 50  0001 C CNN
F 3 "" H 6800 1750 50  0001 C CNN
	1    6800 1750
	1    0    0    -1  
$EndComp
$Comp
L PWR_FLAG #FLG063
U 1 1 5B18AF82
P 4550 7100
F 0 "#FLG063" H 4550 7175 50  0001 C CNN
F 1 "PWR_FLAG" H 4550 7250 50  0000 C CNN
F 2 "" H 4550 7100 50  0001 C CNN
F 3 "" H 4550 7100 50  0001 C CNN
	1    4550 7100
	-1   0    0    1   
$EndComp
Text GLabel 4550 7100 1    47   Input ~ 0
USB_5V
Text GLabel 1350 800  2    47   Input ~ 0
USB_5V
$Comp
L MIC5219-3.3 U4
U 1 1 5B0B72C4
P 5300 1900
F 0 "U4" H 5150 2125 50  0000 C CNN
F 1 "MIC5219-3.3" H 5300 2150 50  0001 L CNN
F 2 "TO_SOT_Packages_SMD:SOT-23-5" H 5300 2225 50  0001 C CNN
F 3 "" H 5300 1900 50  0001 C CNN
	1    5300 1900
	1    0    0    -1  
$EndComp
$Comp
L C_Small C22
U 1 1 5B0BA57A
P 5600 2050
F 0 "C22" H 5610 2120 50  0000 L CNN
F 1 "1n" H 5610 1970 50  0000 L CNN
F 2 "Capacitors_SMD:C_1206" H 5600 2050 50  0001 C CNN
F 3 "" H 5600 2050 50  0001 C CNN
	1    5600 2050
	-1   0    0    1   
$EndComp
$Comp
L NTR2101P Q1
U 1 1 5B0C0E70
P 6400 3050
F 0 "Q1" V 6600 3125 50  0000 L CNN
F 1 "NTR2101P" V 6650 3100 50  0001 L CNN
F 2 "TO_SOT_Packages_SMD:SOT-23" H 6600 2975 50  0001 L CIN
F 3 "" H 6400 3050 50  0001 L CNN
	1    6400 3050
	0    -1   1    0   
$EndComp
Text GLabel 4250 2150 1    47   Input ~ 0
USB_5V
$Comp
L Arduino_UNO_R3 A2
U 1 1 5B0D3D4E
P 8250 2200
F 0 "A2" H 7950 3250 50  0000 R CNN
F 1 "Arduino_UNO_R3" H 8050 3150 50  0000 R CNN
F 2 "mylib:Arduino_UNO_R3_LAYOUT_ONLY" H 8400 1150 50  0001 L CNN
F 3 "" H 8050 3250 50  0001 C CNN
	1    8250 2200
	1    0    0    -1  
$EndComp
$Comp
L MCP2551-I/SN U8
U 1 1 5B0AFEFE
P 6050 4450
F 0 "U8" H 5650 4800 50  0000 L CNN
F 1 "MCP2551-I/SN" H 6150 4800 50  0000 L CNN
F 2 "Housings_SOIC:SOIC-8_3.9x4.9mm_Pitch1.27mm" H 6050 3950 50  0001 C CIN
F 3 "" H 6050 4450 50  0001 C CNN
	1    6050 4450
	1    0    0    -1  
$EndComp
NoConn ~ 5550 4550
$Comp
L VCC #PWR064
U 1 1 5B0D006B
P 2650 850
F 0 "#PWR064" H 2650 700 50  0001 C CNN
F 1 "VCC" H 2650 1000 50  0000 C CNN
F 2 "" H 2650 850 50  0001 C CNN
F 3 "" H 2650 850 50  0001 C CNN
	1    2650 850 
	1    0    0    -1  
$EndComp
NoConn ~ 3550 1450
Text GLabel 10750 5150 1    31   Input ~ 0
USB_RESET
$Comp
L Conn_02x03_Odd_Even J15
U 1 1 5B0DFB6E
P 4200 6050
F 0 "J15" H 4250 6250 50  0000 C CNN
F 1 "Conn_02x03_Odd_Even" H 4250 5850 50  0000 C CNN
F 2 "Socket_Strips:Socket_Strip_Straight_2x03_Pitch2.54mm" H 4200 6050 50  0001 C CNN
F 3 "" H 4200 6050 50  0001 C CNN
	1    4200 6050
	1    0    0    -1  
$EndComp
$Comp
L Jumper_NC_Small J9
U 1 1 5B0F3AFD
P 4100 4650
F 0 "J9" H 4100 4750 50  0000 C CNN
F 1 "SEL" H 4100 4600 50  0000 C CNN
F 2 "Connectors:GS2" H 4100 4650 50  0001 C CNN
F 3 "" H 4100 4650 50  0001 C CNN
	1    4100 4650
	1    0    0    -1  
$EndComp
$Comp
L SolderJumper_3_Bridged12 J10
U 1 1 5B1073C0
P 6150 1800
F 0 "J10" H 6050 1700 50  0000 C CNN
F 1 "SolderJumper_3_Bridged12" H 6150 1910 50  0001 C CNN
F 2 "mylib:SolderJumper3_P1.3mm_Bridged12_Pad1.0x1.5mm" H 6150 1800 50  0001 C CNN
F 3 "" H 6150 1800 50  0001 C CNN
	1    6150 1800
	1    0    0    -1  
$EndComp
$Comp
L SolderJumper_3_Bridged12 J7
U 1 1 5B110D43
P 8900 1200
F 0 "J7" H 8800 1100 50  0000 C CNN
F 1 "SolderJumper_3_Bridged12" H 8900 1310 50  0001 C CNN
F 2 "mylib:SolderJumper3_P1.3mm_Bridged12_Pad1.0x1.5mm" H 8900 1200 50  0001 C CNN
F 3 "" H 8900 1200 50  0001 C CNN
	1    8900 1200
	0    1    1    0   
$EndComp
$Comp
L +5V #PWR065
U 1 1 5AC76952
P 8900 1000
F 0 "#PWR065" H 8900 850 50  0001 C CNN
F 1 "+5V" H 8900 1140 50  0000 C CNN
F 2 "" H 8900 1000 50  0001 C CNN
F 3 "" H 8900 1000 50  0001 C CNN
	1    8900 1000
	0    1    1    0   
$EndComp
$Comp
L SolderJumper_3_Bridged12 J5
U 1 1 5B115053
P 2950 4700
F 0 "J5" H 2850 4600 50  0000 C CNN
F 1 "SolderJumper_3_Bridged12" H 2950 4810 50  0001 C CNN
F 2 "mylib:SolderJumper3_P1.3mm_Bridged12_Pad1.0x1.5mm" H 2950 4700 50  0001 C CNN
F 3 "" H 2950 4700 50  0001 C CNN
	1    2950 4700
	0    1    -1   0   
$EndComp
$Comp
L C_Small C5
U 1 1 5B11D738
P 6700 1100
F 0 "C5" H 6710 1170 50  0000 L CNN
F 1 "100n" H 6710 1020 50  0000 L CNN
F 2 "Capacitors_SMD:C_1206" H 6700 1100 50  0001 C CNN
F 3 "" H 6700 1100 50  0001 C CNN
	1    6700 1100
	1    0    0    -1  
$EndComp
Wire Wire Line
	10250 4600 10050 4600
Wire Wire Line
	10050 4500 10600 4500
Wire Notes Line
	11100 3650 7550 3650
Wire Notes Line
	7550 6450 11100 6450
Wire Wire Line
	5750 1900 5750 1750
Connection ~ 5700 2150
Wire Wire Line
	5750 2150 5750 2100
Wire Wire Line
	5600 2150 5750 2150
Wire Wire Line
	5600 1900 5600 1950
Connection ~ 5000 1800
Wire Wire Line
	5000 1800 5000 1900
Connection ~ 1300 900 
Wire Wire Line
	1350 800  1300 800 
Wire Wire Line
	1300 900  2900 900 
Wire Wire Line
	1250 1550 1950 1550
Wire Wire Line
	1950 1650 1250 1650
Wire Wire Line
	1850 1150 1650 1150
Wire Wire Line
	1850 900  1850 950 
Connection ~ 1850 900 
Wire Wire Line
	1300 800  1300 1000
Connection ~ 1650 1150
Wire Notes Line
	6950 3550 3650 3550
Wire Notes Line
	3650 6350 6950 6350
Wire Wire Line
	5400 5500 5550 5500
Wire Wire Line
	5400 5150 5350 5150
Connection ~ 1650 900 
Wire Wire Line
	1650 950  1650 900 
Connection ~ 2850 900 
Wire Wire Line
	3150 900  3150 850 
Wire Wire Line
	3100 900  3150 900 
Connection ~ 950  1950
Wire Wire Line
	850  1950 950  1950
Wire Wire Line
	5600 1800 5750 1800
Wire Wire Line
	6550 5800 6600 5800
Wire Wire Line
	6600 5600 6550 5600
Wire Wire Line
	6550 4550 6600 4550
Wire Wire Line
	6600 4350 6550 4350
Connection ~ 6050 6100
Wire Wire Line
	6400 2850 6050 2850
Wire Wire Line
	6700 1200 6700 1250
Wire Wire Line
	6700 1250 6550 1250
Wire Wire Line
	6700 1000 6700 950 
Connection ~ 6700 950 
Connection ~ 6050 4850
Wire Wire Line
	5800 4850 6050 4850
Wire Wire Line
	5550 4850 5550 4650
Wire Wire Line
	5600 4850 5550 4850
Wire Wire Line
	5550 6100 5600 6100
Wire Wire Line
	6050 6100 5800 6100
Wire Wire Line
	5550 5900 5550 6100
Wire Notes Line
	3000 5950 600  5950
Wire Notes Line
	3000 7650 3000 5950
Wire Notes Line
	600  7650 3000 7650
Wire Notes Line
	600  5950 600  7650
Connection ~ 2750 7250
Wire Wire Line
	2850 7250 2850 7100
Wire Wire Line
	2650 7250 2650 7100
Wire Wire Line
	2650 7250 2850 7250
Connection ~ 2300 7250
Wire Wire Line
	2400 7250 2400 7100
Wire Wire Line
	2200 7250 2200 7100
Wire Wire Line
	2200 7250 2400 7250
Wire Notes Line
	3250 3400 600  3400
Wire Notes Line
	3250 5800 3250 3400
Wire Notes Line
	600  5800 3250 5800
Wire Notes Line
	600  3400 600  5800
Wire Notes Line
	6950 6350 6950 3550
Wire Notes Line
	3650 3550 3650 6350
Wire Wire Line
	4200 5000 4550 5000
Wire Notes Line
	11100 600  9450 600 
Wire Notes Line
	11100 3600 11100 600 
Wire Notes Line
	9450 3600 11100 3600
Wire Notes Line
	9450 600  9450 3600
Wire Notes Line
	9300 3600 9300 600 
Wire Notes Line
	7150 3600 9300 3600
Wire Notes Line
	7150 600  7150 3600
Wire Notes Line
	9300 600  7150 600 
Wire Wire Line
	6550 1250 6550 1200
Wire Wire Line
	6550 1000 6550 950 
Wire Wire Line
	5350 1300 5750 1300
Wire Wire Line
	5300 950  5350 950 
Wire Wire Line
	5600 950  5600 1050
Wire Wire Line
	5750 750  5750 1050
Wire Wire Line
	5350 1050 5350 1300
Wire Notes Line
	6950 3450 4700 3450
Wire Notes Line
	4700 600  6950 600 
Wire Notes Line
	600  3250 600  600 
Wire Notes Line
	4600 3250 600  3250
Wire Notes Line
	4600 600  4600 3250
Wire Notes Line
	600  600  4600 600 
Wire Wire Line
	3850 2350 3900 2350
Wire Wire Line
	3900 2250 3850 2250
Wire Wire Line
	4250 2350 4200 2350
Wire Wire Line
	4200 2250 4250 2250
Wire Wire Line
	3650 2350 3550 2350
Wire Wire Line
	3650 2250 3550 2250
Wire Wire Line
	950  4000 1150 4000
Connection ~ 2750 4700
Wire Wire Line
	2750 4350 2750 4700
Connection ~ 4200 4650
Wire Wire Line
	4200 4350 4200 5000
Connection ~ 1150 4300
Wire Wire Line
	1150 4000 1150 4300
Wire Wire Line
	1000 4200 850  4200
Wire Wire Line
	1000 4300 1000 4200
Wire Wire Line
	1000 4300 1450 4300
Wire Wire Line
	900  4850 900  5100
Connection ~ 900  5050
Wire Wire Line
	900  4850 950  4850
Wire Wire Line
	950  5050 900  5050
Connection ~ 1250 5050
Connection ~ 1250 4850
Wire Wire Line
	1350 5050 1150 5050
Wire Wire Line
	1350 5000 1350 5050
Wire Wire Line
	1450 5000 1350 5000
Wire Wire Line
	1350 4900 1450 4900
Wire Wire Line
	1350 4850 1350 4900
Wire Wire Line
	1150 4850 1350 4850
Wire Wire Line
	7400 1700 7450 1700
Wire Wire Line
	7450 1600 7400 1600
Wire Wire Line
	1950 1250 1900 1250
Wire Wire Line
	5200 2500 5200 2550
Wire Wire Line
	5150 2500 5200 2500
Wire Wire Line
	5450 2750 5200 2750
Wire Wire Line
	5450 2950 5400 2950
Wire Wire Line
	6650 3150 6600 3150
Wire Wire Line
	6200 3150 6150 3150
Wire Wire Line
	1300 1350 1250 1350
Wire Wire Line
	8650 1100 8650 1050
Wire Wire Line
	8550 1100 8650 1100
Wire Wire Line
	8350 1100 8350 1200
Wire Wire Line
	4150 1650 4250 1650
Wire Wire Line
	3950 1650 3850 1650
Connection ~ 5750 1800
Wire Wire Line
	4900 1800 5000 1800
Connection ~ 5600 1300
Wire Wire Line
	5750 1300 5750 1250
Wire Wire Line
	5600 1250 5600 1350
Wire Wire Line
	5300 1050 5350 1050
Connection ~ 5600 950 
Wire Wire Line
	5650 750  5750 750 
Connection ~ 8100 4500
Wire Wire Line
	10050 5350 10750 5350
Wire Wire Line
	10400 4400 10050 4400
Wire Wire Line
	10400 4300 10050 4300
Wire Wire Line
	10400 4200 10050 4200
Wire Wire Line
	7750 1700 7650 1700
Wire Wire Line
	7650 1600 7750 1600
Wire Wire Line
	8350 3350 8350 3300
Connection ~ 8250 3350
Wire Wire Line
	8150 3350 8350 3350
Wire Wire Line
	8150 3300 8150 3350
Wire Wire Line
	8250 3300 8250 3400
Connection ~ 10500 5350
Wire Wire Line
	3850 1250 3950 1250
Wire Wire Line
	3950 1350 3850 1350
Wire Wire Line
	3650 1650 3550 1650
Connection ~ 4250 2250
Wire Wire Line
	2850 900  2850 950 
Wire Wire Line
	2650 850  2650 950 
Wire Wire Line
	1900 2750 1900 2650
Wire Wire Line
	1900 2650 1950 2650
Connection ~ 2850 2950
Connection ~ 2750 2950
Wire Wire Line
	2550 2950 2950 2950
Wire Wire Line
	10750 1150 10750 1100
Wire Wire Line
	10400 1150 10750 1150
Wire Wire Line
	10750 1250 10400 1250
Wire Wire Line
	10750 1350 10750 1450
Wire Wire Line
	10400 1350 10750 1350
Wire Wire Line
	10150 1350 9850 1350
Wire Wire Line
	9850 1250 10150 1250
Wire Wire Line
	10150 1150 9850 1150
Wire Wire Line
	10250 4600 10250 4700
Wire Notes Line
	3200 6450 5050 6450
Wire Wire Line
	7900 4050 7900 4000
Wire Notes Line
	7550 3650 7550 6450
Wire Notes Line
	11100 6450 11100 3650
Wire Wire Line
	6750 950  6750 900 
Connection ~ 6550 950 
Wire Wire Line
	10850 4500 10850 4700
Wire Wire Line
	10850 4700 10800 4700
Wire Wire Line
	10850 4500 10800 4500
Connection ~ 10850 4600
Connection ~ 10400 4700
Connection ~ 10400 4500
Wire Wire Line
	6450 950  6750 950 
Connection ~ 5750 950 
Wire Wire Line
	10300 2250 10200 2250
Wire Wire Line
	10300 2150 10300 2250
Wire Wire Line
	10300 2150 10200 2150
Wire Wire Line
	10350 2200 10300 2200
Connection ~ 10300 2200
Wire Wire Line
	10400 2550 10200 2550
Wire Wire Line
	10200 2450 10400 2450
Wire Wire Line
	8100 6000 8100 6250
Wire Wire Line
	8100 6200 8150 6200
Wire Wire Line
	8150 6100 8100 6100
Connection ~ 8100 6200
Wire Wire Line
	8150 6000 8100 6000
Connection ~ 8100 6100
Wire Wire Line
	8100 4550 8100 4500
Wire Wire Line
	7950 4500 8150 4500
Wire Wire Line
	8150 3900 8100 3900
Wire Wire Line
	8100 3850 8100 4200
Wire Wire Line
	7900 4000 8150 4000
Connection ~ 8100 3900
Wire Wire Line
	8100 4200 8150 4200
Connection ~ 8100 4000
Wire Wire Line
	5550 950  5850 950 
Wire Wire Line
	10500 5350 10500 5300
Wire Wire Line
	10250 4700 10600 4700
Wire Wire Line
	1950 1950 1450 1950
Wire Wire Line
	1450 1950 1450 900 
Connection ~ 1450 900 
Wire Wire Line
	4250 2150 4250 2350
Wire Wire Line
	5400 5150 5400 5500
Wire Wire Line
	5550 5600 5450 5600
Wire Wire Line
	5450 5600 5450 4800
Wire Wire Line
	5450 4800 5350 4800
Wire Wire Line
	5550 4350 5350 4350
Wire Wire Line
	5350 4350 5350 4700
Wire Wire Line
	5550 4250 5400 4250
Wire Wire Line
	5400 4250 5400 5050
Wire Wire Line
	5400 5050 5350 5050
Wire Wire Line
	1300 1350 1300 1200
Wire Wire Line
	10600 5300 10600 5350
Connection ~ 10600 5350
Wire Wire Line
	4200 4650 4550 4650
Wire Wire Line
	8450 1200 8750 1200
Wire Wire Line
	2750 4350 2800 4350
Wire Wire Line
	3000 4500 2950 4500
Wire Wire Line
	3000 4900 2950 4900
Wire Wire Line
	2800 4700 2650 4700
Wire Notes Line
	4700 3450 4700 600 
Wire Notes Line
	6950 600  6950 3450
Wire Notes Line
	5050 6450 5050 7500
Wire Notes Line
	5050 7500 3200 7500
Wire Notes Line
	3200 7500 3200 6450
$EndSCHEMATC
