EESchema Schematic File Version 2
LIBS:ArduinoPC104DevBoard-rescue
LIBS:power
LIBS:device
LIBS:switches
LIBS:relays
LIBS:motors
LIBS:transistors
LIBS:conn
LIBS:linear
LIBS:regul
LIBS:74xx
LIBS:cmos4000
LIBS:adc-dac
LIBS:memory
LIBS:xilinx
LIBS:microcontrollers
LIBS:dsp
LIBS:microchip
LIBS:analog_switches
LIBS:motorola
LIBS:texas
LIBS:intel
LIBS:audio
LIBS:interface
LIBS:digital-audio
LIBS:philips
LIBS:display
LIBS:cypress
LIBS:siliconi
LIBS:opto
LIBS:atmel
LIBS:contrib
LIBS:valves
LIBS:ftdi
LIBS:mylib
LIBS:MCU_Module
LIBS:ArduinoPC104DevBoard-cache
EELAYER 25 0
EELAYER END
$Descr A4 11693 8268
encoding utf-8
Sheet 2 2
Title ""
Date ""
Rev ""
Comp ""
Comment1 ""
Comment2 ""
Comment3 ""
Comment4 ""
$EndDescr
$Comp
L Conn_01x01 J8
U 1 1 5ACFF416
P 2000 4450
F 0 "J8" H 2000 4550 50  0000 C CNN
F 1 "~CAN_CS" H 2250 4450 50  0000 C CNN
F 2 "Socket_Strips:Socket_Strip_Straight_1x01_Pitch2.54mm" H 2000 4450 50  0001 C CNN
F 3 "" H 2000 4450 50  0001 C CNN
	1    2000 4450
	1    0    0    -1  
$EndComp
Text GLabel 1800 4450 0    39   Input ~ 0
~CAN_CS
Text Notes 1200 1300 0    79   ~ 0
Connectors
$Comp
L Conn_02x26_Odd_Even H1
U 1 1 5ACFF439
P 2150 2750
F 0 "H1" H 2200 4050 50  0000 C CNN
F 1 "H1" H 2200 1350 50  0001 C CNN
F 2 "Pin_Headers:Pin_Header_Straight_2x26_Pitch2.54mm" H 2150 2750 50  0001 C CNN
F 3 "" H 2150 2750 50  0001 C CNN
	1    2150 2750
	1    0    0    -1  
$EndComp
$Comp
L Conn_02x26_Odd_Even H2
U 1 1 5ACFF440
P 4050 2800
F 0 "H2" H 4100 4100 50  0000 C CNN
F 1 "H2" H 4100 1400 50  0001 C CNN
F 2 "Pin_Headers:Pin_Header_Straight_2x26_Pitch2.54mm" H 4050 2800 50  0001 C CNN
F 3 "" H 4050 2800 50  0001 C CNN
	1    4050 2800
	1    0    0    -1  
$EndComp
Text GLabel 1450 1550 0    39   Input ~ 0
CAN1_L
Text GLabel 1450 1650 0    39   Input ~ 0
CAN1_H
Wire Wire Line
	1650 1550 1950 1550
Wire Wire Line
	1650 1650 1950 1650
Text GLabel 3350 1700 0    39   Input ~ 0
CAN2_H
Text GLabel 3350 1600 0    39   Input ~ 0
CAN2_L
Text GLabel 1800 4800 0    39   Input ~ 0
CAN_INT
$Comp
L Conn_01x01 J6
U 1 1 5ACFF4D2
P 2000 4800
F 0 "J6" H 2000 4900 50  0000 C CNN
F 1 "CAN_INT" H 2250 4800 50  0000 C CNN
F 2 "Socket_Strips:Socket_Strip_Straight_1x01_Pitch2.54mm" H 2000 4800 50  0001 C CNN
F 3 "" H 2000 4800 50  0001 C CNN
	1    2000 4800
	1    0    0    1   
$EndComp
Text GLabel 1450 3550 0    28   Input ~ 0
H1_SDA
Text GLabel 1450 3650 0    28   Input ~ 0
H1_SCL
Text GLabel 3450 2800 0    28   Input ~ 0
H2_5V
Text GLabel 3450 2900 0    28   Input ~ 0
H2_3V3
$Comp
L GND #PWR066
U 1 1 5B149067
P 3550 3000
F 0 "#PWR066" H 3550 2750 50  0001 C CNN
F 1 "GND" H 3550 2850 50  0000 C CNN
F 2 "" H 3550 3000 50  0001 C CNN
F 3 "" H 3550 3000 50  0001 C CNN
	1    3550 3000
	0    1    -1   0   
$EndComp
$Comp
L Conn_01x26 H1_even1
U 1 1 5B14A395
P 2650 2750
F 0 "H1_even1" H 2700 4050 50  0000 C CNN
F 1 "Conn_01x26" H 2650 1350 50  0001 C CNN
F 2 "mylib:Pin_Header_Straight_1x26_Pitch2.54mm_SMD" H 2650 2750 50  0001 C CNN
F 3 "" H 2650 2750 50  0001 C CNN
	1    2650 2750
	1    0    0    -1  
$EndComp
$Comp
L Conn_01x26 H1_odd1
U 1 1 5B14A3CB
P 1750 2750
F 0 "H1_odd1" H 1700 4050 50  0000 C CNN
F 1 "Conn_01x26" H 1750 1350 50  0001 C CNN
F 2 "mylib:Pin_Header_Straight_1x26_Pitch2.54mm_SMD" H 1750 2750 50  0001 C CNN
F 3 "" H 1750 2750 50  0001 C CNN
	1    1750 2750
	-1   0    0    -1  
$EndComp
$Comp
L Conn_01x26 H2_odd1
U 1 1 5B14A5EB
P 3650 2800
F 0 "H2_odd1" H 3600 4100 50  0000 C CNN
F 1 "Conn_01x26" H 3650 1400 50  0001 C CNN
F 2 "mylib:Pin_Header_Straight_1x26_Pitch2.54mm_SMD" H 3650 2800 50  0001 C CNN
F 3 "" H 3650 2800 50  0001 C CNN
	1    3650 2800
	-1   0    0    -1  
$EndComp
$Comp
L Conn_01x26 H2_even1
U 1 1 5B14A6D4
P 4550 2800
F 0 "H2_even1" H 4600 4100 50  0000 C CNN
F 1 "Conn_01x26" H 4550 1400 50  0001 C CNN
F 2 "mylib:Pin_Header_Straight_1x26_Pitch2.54mm_SMD" H 4550 2800 50  0001 C CNN
F 3 "" H 4550 2800 50  0001 C CNN
	1    4550 2800
	1    0    0    -1  
$EndComp
Connection ~ 4350 3000
Connection ~ 4350 3100
Connection ~ 3850 3000
Wire Wire Line
	3450 2900 4350 2900
Connection ~ 3850 2900
Connection ~ 4350 2900
Connection ~ 4350 2800
Connection ~ 3850 2800
Wire Wire Line
	4350 2800 3450 2800
Wire Wire Line
	4350 3000 4350 3100
Wire Wire Line
	4350 3000 3550 3000
$Comp
L Jumper_NC_Small JP9
U 1 1 5B14AE67
P 3450 1600
F 0 "JP9" H 3450 1680 50  0000 C CNN
F 1 "Jumper_NC_Small" H 3460 1540 50  0001 C CNN
F 2 "Connectors:GS2" H 3450 1600 50  0001 C CNN
F 3 "" H 3450 1600 50  0001 C CNN
	1    3450 1600
	1    0    0    -1  
$EndComp
$Comp
L Jumper_NC_Small JP11
U 1 1 5B14AECF
P 3450 1700
F 0 "JP11" H 3450 1780 50  0000 C CNN
F 1 "Jumper_NC_Small" H 3460 1640 50  0001 C CNN
F 2 "Connectors:GS2" H 3450 1700 50  0001 C CNN
F 3 "" H 3450 1700 50  0001 C CNN
	1    3450 1700
	1    0    0    -1  
$EndComp
Wire Wire Line
	3550 1700 3850 1700
Wire Wire Line
	3850 1600 3550 1600
Connection ~ 3850 1600
Connection ~ 3850 1700
$Comp
L Jumper_NC_Small JP8
U 1 1 5B14B238
P 1550 1550
F 0 "JP8" H 1550 1630 50  0000 C CNN
F 1 "Jumper_NC_Small" H 1560 1490 50  0001 C CNN
F 2 "Connectors:GS2" H 1550 1550 50  0001 C CNN
F 3 "" H 1550 1550 50  0001 C CNN
	1    1550 1550
	1    0    0    -1  
$EndComp
$Comp
L Jumper_NC_Small JP10
U 1 1 5B14B23E
P 1550 1650
F 0 "JP10" H 1550 1730 50  0000 C CNN
F 1 "Jumper_NC_Small" H 1560 1590 50  0001 C CNN
F 2 "Connectors:GS2" H 1550 1650 50  0001 C CNN
F 3 "" H 1550 1650 50  0001 C CNN
	1    1550 1650
	1    0    0    -1  
$EndComp
Connection ~ 1950 1550
Connection ~ 1950 1650
$Comp
L Jumper_NC_Small JP12
U 1 1 5B14B613
P 1550 3550
F 0 "JP12" H 1550 3630 50  0000 C CNN
F 1 "Jumper_NC_Small" H 1560 3490 50  0001 C CNN
F 2 "Connectors:GS2" H 1550 3550 50  0001 C CNN
F 3 "" H 1550 3550 50  0001 C CNN
	1    1550 3550
	1    0    0    -1  
$EndComp
$Comp
L Jumper_NC_Small JP13
U 1 1 5B14B619
P 1550 3650
F 0 "JP13" H 1550 3730 50  0000 C CNN
F 1 "Jumper_NC_Small" H 1560 3590 50  0001 C CNN
F 2 "Connectors:GS2" H 1550 3650 50  0001 C CNN
F 3 "" H 1550 3650 50  0001 C CNN
	1    1550 3650
	1    0    0    -1  
$EndComp
Wire Wire Line
	1650 3550 1950 3550
Wire Wire Line
	1950 3650 1650 3650
Connection ~ 1950 3650
Connection ~ 1950 3550
$Comp
L 2N7002 Q2
U 1 1 5B14D80B
P 7700 3050
F 0 "Q2" H 7900 3125 50  0000 L CNN
F 1 "DNP N-ch" H 7900 3050 31  0000 L CNN
F 2 "TO_SOT_Packages_SMD:SOT-23" H 7900 2975 50  0001 L CIN
F 3 "" H 7700 3050 50  0001 L CNN
	1    7700 3050
	0    -1   1    0   
$EndComp
$Comp
L 2N7002 Q3
U 1 1 5B14D9A9
P 8100 3300
F 0 "Q3" H 8300 3375 50  0000 L CNN
F 1 "DNP, N-ch" H 8300 3300 31  0000 L CNN
F 2 "TO_SOT_Packages_SMD:SOT-23" H 8300 3225 50  0001 L CIN
F 3 "" H 8100 3300 50  0001 L CNN
	1    8100 3300
	0    -1   1    0   
$EndComp
$Comp
L R R21
U 1 1 5B1502C5
P 8600 3250
F 0 "R21" V 8680 3250 50  0000 C CNN
F 1 "DNP" V 8600 3250 50  0000 C CNN
F 2 "Resistors_SMD:R_0805" V 8530 3250 50  0001 C CNN
F 3 "" H 8600 3250 50  0001 C CNN
	1    8600 3250
	-1   0    0    1   
$EndComp
$Comp
L R R15
U 1 1 5B150424
P 8400 3000
F 0 "R15" V 8480 3000 50  0000 C CNN
F 1 "DNP" V 8400 3000 50  0000 C CNN
F 2 "Resistors_SMD:R_0805" V 8330 3000 50  0001 C CNN
F 3 "" H 8400 3000 50  0001 C CNN
	1    8400 3000
	-1   0    0    1   
$EndComp
$Comp
L +3.3V #PWR067
U 1 1 5B152525
P 8400 2750
F 0 "#PWR067" H 8400 2600 50  0001 C CNN
F 1 "+3.3V" H 8400 2890 50  0000 C CNN
F 2 "" H 8400 2750 50  0001 C CNN
F 3 "" H 8400 2750 50  0001 C CNN
	1    8400 2750
	1    0    0    -1  
$EndComp
$Comp
L R R14
U 1 1 5B157735
P 7250 3000
F 0 "R14" V 7330 3000 50  0000 C CNN
F 1 "DNP" V 7250 3000 50  0000 C CNN
F 2 "Resistors_SMD:R_0805" V 7180 3000 50  0001 C CNN
F 3 "" H 7250 3000 50  0001 C CNN
	1    7250 3000
	-1   0    0    1   
$EndComp
$Comp
L R R20
U 1 1 5B1579B5
P 7350 3250
F 0 "R20" V 7430 3250 50  0000 C CNN
F 1 "DNP" V 7350 3250 50  0000 C CNN
F 2 "Resistors_SMD:R_0805" V 7280 3250 50  0001 C CNN
F 3 "" H 7350 3250 50  0001 C CNN
	1    7350 3250
	-1   0    0    1   
$EndComp
Text GLabel 8800 3400 2    35   Input ~ 0
H1_SDA
Text GLabel 8800 3150 2    35   Input ~ 0
H1_SCL
Text Notes 8350 3550 0    28   ~ 0
See NXP's AN10441 on how\nto use the level shifter
Text GLabel 7100 3400 0    35   Input ~ 0
A4
Text GLabel 7100 3150 0    35   Input ~ 0
A5
$Comp
L VCC #PWR068
U 1 1 5B162A4E
P 7250 2800
F 0 "#PWR068" H 7250 2650 50  0001 C CNN
F 1 "VCC" H 7250 2950 50  0000 C CNN
F 2 "" H 7250 2800 50  0001 C CNN
F 3 "" H 7250 2800 50  0001 C CNN
	1    7250 2800
	1    0    0    -1  
$EndComp
$Comp
L Jumper_NO_Small JP5
U 1 1 5B163B3D
P 7350 3650
F 0 "JP5" H 7350 3730 50  0000 C CNN
F 1 "Jumper_NO_Small" H 7360 3590 50  0001 C CNN
F 2 "Connectors:GS2" H 7350 3650 50  0001 C CNN
F 3 "" H 7350 3650 50  0001 C CNN
	1    7350 3650
	1    0    0    -1  
$EndComp
Text GLabel 7450 3650 2    35   Input ~ 0
H1_SDA
Text GLabel 7250 3650 0    35   Input ~ 0
A4
Text GLabel 7250 3800 0    35   Input ~ 0
A5
$Comp
L Jumper_NO_Small JP7
U 1 1 5B16475D
P 7350 3800
F 0 "JP7" H 7350 3880 50  0000 C CNN
F 1 "Jumper_NO_Small" H 7360 3740 50  0001 C CNN
F 2 "Connectors:GS2" H 7350 3800 50  0001 C CNN
F 3 "" H 7350 3800 50  0001 C CNN
	1    7350 3800
	1    0    0    -1  
$EndComp
Text GLabel 7450 3800 2    35   Input ~ 0
H1_SCL
Text Notes 7000 2550 0    47   ~ 0
I2C
Text Notes 7050 3550 0    35   ~ 0
Direct connection:
$Comp
L Mounting_Hole_PAD MK1
U 1 1 5B0B09D9
P 7400 5700
F 0 "MK1" H 7400 5950 50  0000 C CNN
F 1 "Mounting_Hole_PAD" H 7400 5875 50  0001 C CNN
F 2 "Mounting_Holes:MountingHole_3.2mm_M3_ISO7380_Pad" H 7400 5700 50  0001 C CNN
F 3 "" H 7400 5700 50  0001 C CNN
	1    7400 5700
	1    0    0    -1  
$EndComp
$Comp
L Mounting_Hole_PAD MK2
U 1 1 5B0B0E93
P 7550 5700
F 0 "MK2" H 7550 5950 50  0000 C CNN
F 1 "Mounting_Hole_PAD" H 7550 5875 50  0001 C CNN
F 2 "Mounting_Holes:MountingHole_3.2mm_M3_ISO7380_Pad" H 7550 5700 50  0001 C CNN
F 3 "" H 7550 5700 50  0001 C CNN
	1    7550 5700
	1    0    0    -1  
$EndComp
$Comp
L Mounting_Hole_PAD MK3
U 1 1 5B0B0FDC
P 7700 5700
F 0 "MK3" H 7700 5950 50  0000 C CNN
F 1 "Mounting_Hole_PAD" H 7700 5875 50  0001 C CNN
F 2 "Mounting_Holes:MountingHole_3.2mm_M3_ISO7380_Pad" H 7700 5700 50  0001 C CNN
F 3 "" H 7700 5700 50  0001 C CNN
	1    7700 5700
	1    0    0    -1  
$EndComp
$Comp
L Mounting_Hole_PAD MK4
U 1 1 5B0B1126
P 7850 5700
F 0 "MK4" H 7850 5950 50  0000 C CNN
F 1 "Mounting_Hole_PAD" H 7850 5875 50  0001 C CNN
F 2 "Mounting_Holes:MountingHole_3.2mm_M3_ISO7380_Pad" H 7850 5700 50  0001 C CNN
F 3 "" H 7850 5700 50  0001 C CNN
	1    7850 5700
	1    0    0    -1  
$EndComp
$Comp
L GND #PWR069
U 1 1 5B0B14E9
P 7550 5850
F 0 "#PWR069" H 7550 5600 50  0001 C CNN
F 1 "GND" H 7550 5700 50  0000 C CNN
F 2 "" H 7550 5850 50  0001 C CNN
F 3 "" H 7550 5850 50  0001 C CNN
	1    7550 5850
	1    0    0    -1  
$EndComp
$Comp
L Conn_01x10 J1
U 1 1 5B0F7948
P 9100 5550
F 0 "J1" H 9100 6050 50  0000 C CNN
F 1 "Conn_01x10" H 9100 4950 50  0001 C CNN
F 2 "Pin_Headers:Pin_Header_Straight_1x10_Pitch2.54mm" H 9100 5550 50  0001 C CNN
F 3 "" H 9100 5550 50  0001 C CNN
	1    9100 5550
	1    0    0    -1  
$EndComp
Connection ~ 8900 5750
Connection ~ 8900 5850
Connection ~ 8900 5950
Connection ~ 9450 5350
Connection ~ 9450 5250
Connection ~ 10150 3700
Connection ~ 9750 3200
Connection ~ 10150 3050
Connection ~ 10150 3200
Wire Wire Line
	10050 3050 10150 3050
Connection ~ 10050 2900
Connection ~ 9650 2900
Connection ~ 9750 3050
Wire Wire Line
	9650 3050 9750 3050
Wire Wire Line
	10250 2900 10250 2800
Wire Wire Line
	10050 2800 10050 3050
Wire Wire Line
	9850 2900 9850 2800
Wire Wire Line
	9650 2800 9650 3050
Wire Wire Line
	9750 3700 10500 3700
Wire Wire Line
	8900 5100 8900 6050
Connection ~ 8900 5150
Connection ~ 8900 5250
Connection ~ 8900 5350
Connection ~ 8900 5450
Connection ~ 8900 5550
Connection ~ 8900 5650
Connection ~ 9450 5450
Connection ~ 9450 5550
Connection ~ 9450 5650
Connection ~ 9450 5750
Connection ~ 9450 5850
Connection ~ 9450 5950
$Comp
L +3.3V #PWR070
U 1 1 5B101E91
P 9950 5100
F 0 "#PWR070" H 9950 4950 50  0001 C CNN
F 1 "+3.3V" H 9950 5240 50  0000 C CNN
F 2 "" H 9950 5100 50  0001 C CNN
F 3 "" H 9950 5100 50  0001 C CNN
	1    9950 5100
	1    0    0    -1  
$EndComp
$Comp
L +5V #PWR071
U 1 1 5B103382
P 10350 5100
F 0 "#PWR071" H 10350 4950 50  0001 C CNN
F 1 "+5V" H 10350 5240 50  0000 C CNN
F 2 "" H 10350 5100 50  0001 C CNN
F 3 "" H 10350 5100 50  0001 C CNN
	1    10350 5100
	1    0    0    -1  
$EndComp
Wire Wire Line
	10350 5100 10350 5750
Wire Wire Line
	9950 5750 9950 5100
Connection ~ 9950 5150
Connection ~ 9950 5250
Connection ~ 9950 5350
Connection ~ 9950 5450
Connection ~ 9950 5550
Connection ~ 9950 5650
Connection ~ 10350 5650
Connection ~ 10350 5550
Connection ~ 10350 5450
Connection ~ 10350 5350
Connection ~ 10350 5250
Connection ~ 10350 5150
$Comp
L GND #PWR072
U 1 1 5B0E2858
P 9450 6150
F 0 "#PWR072" H 9450 5900 50  0001 C CNN
F 1 "GND" H 9450 6000 50  0000 C CNN
F 2 "" H 9450 6150 50  0001 C CNN
F 3 "" H 9450 6150 50  0001 C CNN
	1    9450 6150
	1    0    0    -1  
$EndComp
Connection ~ 9450 6050
Wire Wire Line
	9450 5150 9450 6150
$Comp
L VCC #PWR073
U 1 1 5B0E38A7
P 8900 5100
F 0 "#PWR073" H 8900 4950 50  0001 C CNN
F 1 "VCC" H 8900 5250 50  0000 C CNN
F 2 "" H 8900 5100 50  0001 C CNN
F 3 "" H 8900 5100 50  0001 C CNN
	1    8900 5100
	1    0    0    -1  
$EndComp
Text Notes 8800 4750 0    47   ~ 0
Protoboard
$Comp
L Conn_01x10 J12
U 1 1 5B0F7B81
P 9650 5550
F 0 "J12" H 9650 6050 50  0000 C CNN
F 1 "Conn_01x10" H 9650 4950 50  0001 C CNN
F 2 "Pin_Headers:Pin_Header_Straight_1x10_Pitch2.54mm" H 9650 5550 50  0001 C CNN
F 3 "" H 9650 5550 50  0001 C CNN
	1    9650 5550
	1    0    0    -1  
$EndComp
$Comp
L Conn_01x07 J20
U 1 1 5B0FEEB8
P 10150 5450
F 0 "J20" H 10150 5850 50  0000 C CNN
F 1 "Conn_01x07" H 10150 5050 50  0001 C CNN
F 2 "Pin_Headers:Pin_Header_Straight_1x07_Pitch2.54mm" H 10150 5450 50  0001 C CNN
F 3 "" H 10150 5450 50  0001 C CNN
	1    10150 5450
	1    0    0    -1  
$EndComp
$Comp
L Conn_01x07 J21
U 1 1 5B101328
P 10550 5450
F 0 "J21" H 10550 5850 50  0000 C CNN
F 1 "Conn_01x07" H 10550 5050 50  0001 C CNN
F 2 "Pin_Headers:Pin_Header_Straight_1x07_Pitch2.54mm" H 10550 5450 50  0001 C CNN
F 3 "" H 10550 5450 50  0001 C CNN
	1    10550 5450
	1    0    0    -1  
$EndComp
$Comp
L LED_Small D9
U 1 1 5B0D8F34
P 10500 3300
F 0 "D9" H 10450 3200 50  0000 L CNN
F 1 "LED13" H 10400 3400 50  0000 L CNN
F 2 "LEDs:LED_0805_HandSoldering" V 10500 3300 50  0001 C CNN
F 3 "" V 10500 3300 50  0001 C CNN
	1    10500 3300
	0    1    -1   0   
$EndComp
$Comp
L LED_Small D8
U 1 1 5B0D8F3A
P 10150 3300
F 0 "D8" H 10100 3200 50  0000 L CNN
F 1 "LED1" H 10050 3400 50  0000 L CNN
F 2 "LEDs:LED_0805_HandSoldering" V 10150 3300 50  0001 C CNN
F 3 "" V 10150 3300 50  0001 C CNN
	1    10150 3300
	0    1    -1   0   
$EndComp
$Comp
L R R23
U 1 1 5B0D8F40
P 10150 3550
F 0 "R23" V 10230 3550 50  0000 C CNN
F 1 "1k" V 10150 3550 50  0000 C CNN
F 2 "Resistors_SMD:R_0805" V 10080 3550 50  0001 C CNN
F 3 "" H 10150 3550 50  0001 C CNN
	1    10150 3550
	-1   0    0    1   
$EndComp
$Comp
L R R24
U 1 1 5B0D8F46
P 10500 3550
F 0 "R24" V 10580 3550 50  0000 C CNN
F 1 "1k" V 10500 3550 50  0000 C CNN
F 2 "Resistors_SMD:R_0805" V 10430 3550 50  0001 C CNN
F 3 "" H 10500 3550 50  0001 C CNN
	1    10500 3550
	1    0    0    1   
$EndComp
$Comp
L GND #PWR074
U 1 1 5B0D9C17
P 10150 3700
F 0 "#PWR074" H 10150 3450 50  0001 C CNN
F 1 "GND" H 10150 3550 50  0000 C CNN
F 2 "" H 10150 3700 50  0001 C CNN
F 3 "" H 10150 3700 50  0001 C CNN
	1    10150 3700
	1    0    0    -1  
$EndComp
$Comp
L LED_Small D7
U 1 1 5B0DCD86
P 9750 3300
F 0 "D7" H 9700 3200 50  0000 L CNN
F 1 "LED2" H 9650 3400 50  0000 L CNN
F 2 "LEDs:LED_0805_HandSoldering" V 9750 3300 50  0001 C CNN
F 3 "" V 9750 3300 50  0001 C CNN
	1    9750 3300
	0    1    -1   0   
$EndComp
$Comp
L R R22
U 1 1 5B0DCD8C
P 9750 3550
F 0 "R22" V 9830 3550 50  0000 C CNN
F 1 "1k" V 9750 3550 50  0000 C CNN
F 2 "Resistors_SMD:R_0805" V 9680 3550 50  0001 C CNN
F 3 "" H 9750 3550 50  0001 C CNN
	1    9750 3550
	-1   0    0    1   
$EndComp
Text GLabel 10500 3200 1    51   Input ~ 0
D13
$Comp
L GS3 J19
U 1 1 5B0AEAAE
P 10150 3050
F 0 "J19" H 10150 3250 50  0000 C CNN
F 1 "GS3" H 10200 2851 50  0001 C CNN
F 2 "Connectors:GS3" V 10238 2976 50  0001 C CNN
F 3 "" H 10150 3050 50  0001 C CNN
	1    10150 3050
	0    1    1    0   
$EndComp
$Comp
L Conn_01x01 J17
U 1 1 5B0B0A30
P 10150 2700
F 0 "J17" H 10250 2700 50  0000 C CNN
F 1 "CONN_01X01" V 10250 2700 50  0001 C CNN
F 2 "Socket_Strips:Socket_Strip_Straight_1x01_Pitch2.54mm" H 10150 2700 50  0001 C CNN
F 3 "" H 10150 2700 50  0001 C CNN
	1    10150 2700
	0    1    -1   0   
$EndComp
$Comp
L GS3 J18
U 1 1 5B0B1EB6
P 9750 3050
F 0 "J18" H 9750 3250 50  0000 C CNN
F 1 "GS3" H 9800 2851 50  0001 C CNN
F 2 "Connectors:GS3" V 9838 2976 50  0001 C CNN
F 3 "" H 9750 3050 50  0001 C CNN
	1    9750 3050
	0    1    1    0   
$EndComp
$Comp
L Conn_01x01 J16
U 1 1 5B0B1EBC
P 9750 2700
F 0 "J16" H 9850 2700 50  0000 C CNN
F 1 "CONN_01X01" V 9850 2700 50  0001 C CNN
F 2 "Socket_Strips:Socket_Strip_Straight_1x01_Pitch2.54mm" H 9750 2700 50  0001 C CNN
F 3 "" H 9750 2700 50  0001 C CNN
	1    9750 2700
	0    1    -1   0   
$EndComp
Text GLabel 9650 2800 1    51   Input ~ 0
D4
Text GLabel 10050 2800 1    51   Input ~ 0
D6
Text GLabel 10250 2800 1    51   Input ~ 0
D8
Text GLabel 9850 2800 1    51   Input ~ 0
D3
Text Notes 9500 2550 0    47   ~ 0
LEDs
Connection ~ 7700 5800
Connection ~ 7550 5800
Wire Wire Line
	7550 5800 7550 5850
Wire Wire Line
	7400 5800 7850 5800
Wire Notes Line
	10700 2450 9400 2450
Wire Notes Line
	10700 3900 10700 2450
Wire Notes Line
	9400 3900 10700 3900
Wire Notes Line
	9400 2450 9400 3900
Wire Notes Line
	6950 2450 6950 3850
Wire Notes Line
	9100 2450 6950 2450
Wire Notes Line
	9100 3850 9100 2450
Wire Notes Line
	6950 3850 9100 3850
Connection ~ 7250 2800
Wire Wire Line
	7350 2800 7350 3100
Wire Wire Line
	7250 2800 7350 2800
Wire Wire Line
	7250 2850 7250 2800
Connection ~ 7250 3150
Wire Wire Line
	7100 3150 7500 3150
Connection ~ 7350 3400
Connection ~ 8600 3400
Connection ~ 8400 3150
Wire Wire Line
	7100 3400 7900 3400
Connection ~ 8100 2800
Wire Wire Line
	7700 2850 7700 2800
Wire Wire Line
	7900 3150 8800 3150
Connection ~ 8400 2800
Wire Wire Line
	8100 3100 8100 2800
Wire Wire Line
	8300 3400 8800 3400
Wire Wire Line
	8600 2800 8600 3100
Wire Wire Line
	7700 2800 8600 2800
Wire Wire Line
	8400 2750 8400 2850
Wire Wire Line
	9750 3200 9750 2900
Wire Wire Line
	10150 3200 10150 2900
Text Notes 7200 5150 0    47   ~ 0
PC104 Mounting
Wire Notes Line
	7150 4900 7150 6200
Wire Notes Line
	7150 6200 8450 6200
Wire Notes Line
	8450 6200 8450 4900
Wire Notes Line
	8450 4900 7150 4900
Wire Notes Line
	8650 4600 8650 6450
Wire Notes Line
	8650 6450 10850 6450
Wire Notes Line
	10850 6450 10850 4600
Wire Notes Line
	10850 4600 8650 4600
Wire Notes Line
	1000 1100 1000 5050
Wire Notes Line
	1000 5050 5000 5050
Wire Notes Line
	5000 5050 5000 1100
Wire Notes Line
	5000 1100 1000 1100
$EndSCHEMATC
