(module Arduino_UNO_R3_LAYOUT_ONLY_doNotUse_wrong_distance (layer F.Cu) (tedit 5B0F2E3A)
  (descr "Arduino UNO R3, http://www.mouser.com/pdfdocs/Gravitech_Arduino_Nano3_0.pdf")
  (tags "Arduino UNO R3")
  (fp_text reference A2 (at 1.27 -3.81) (layer F.SilkS) hide
    (effects (font (size 1 1) (thickness 0.15)))
  )
  (fp_text value Arduino_UNO_R3 (at 0 22.86) (layer F.Fab)
    (effects (font (size 1 1) (thickness 0.15)))
  )
  (fp_line (start 38.227 20.193) (end 38.227 25.527) (layer Dwgs.User) (width 0.5))
  (fp_line (start 35.687 20.193) (end 35.687 25.527) (layer Dwgs.User) (width 0.5))
  (fp_line (start 35.56 25.4) (end 38.354 25.4) (layer Dwgs.User) (width 0.5))
  (fp_line (start 35.56 22.86) (end 38.481 22.86) (layer Dwgs.User) (width 0.5))
  (fp_line (start 35.56 20.32) (end 38.481 20.32) (layer Dwgs.User) (width 0.5))
  (fp_text user %R (at 0 20.32 180) (layer F.Fab)
    (effects (font (size 1 1) (thickness 0.15)))
  )
  (fp_line (start 38.1 37.85) (end 38.1 49.28) (layer Dwgs.User) (width 0.1))
  (fp_line (start 40.64 2.54) (end 40.64 35.31) (layer Dwgs.User) (width 0.1))
  (fp_line (start 40.64 35.31) (end 38.1 37.85) (layer Dwgs.User) (width 0.1))
  (fp_line (start 38.1 -2.54) (end 38.1 0) (layer Dwgs.User) (width 0.1))
  (fp_line (start 38.1 0) (end 40.64 2.54) (layer Dwgs.User) (width 0.1))
  (fp_line (start 38.1 49.28) (end 36.58 50.8) (layer Dwgs.User) (width 0.1))
  (fp_line (start 36.58 50.8) (end -27.94 50.8) (layer Dwgs.User) (width 0.1))
  (fp_line (start -27.94 50.8) (end -27.94 -2.54) (layer Dwgs.User) (width 0.1))
  (fp_line (start -27.94 -2.54) (end 38.1 -2.54) (layer Dwgs.User) (width 0.1))
  (pad 32 thru_hole oval (at -9.14 50.8 90) (size 1.6 1.6) (drill 0.8) (layers *.Cu *.Mask))
  (pad 31 thru_hole oval (at -6.6 50.8 90) (size 1.6 1.6) (drill 0.8) (layers *.Cu *.Mask))
  (pad 1 thru_hole rect (at 0 -2.54 90) (size 1.6 1.6) (drill 0.8) (layers *.Cu *.Mask))
  (pad 17 thru_hole oval (at 30.48 50.8 90) (size 1.6 1.6) (drill 0.8) (layers *.Cu *.Mask))
  (pad 2 thru_hole oval (at 2.54 -2.54 90) (size 1.6 1.6) (drill 0.8) (layers *.Cu *.Mask))
  (pad 18 thru_hole oval (at 27.94 50.8 90) (size 1.6 1.6) (drill 0.8) (layers *.Cu *.Mask))
  (pad 3 thru_hole oval (at 5.08 -2.54 90) (size 1.6 1.6) (drill 0.8) (layers *.Cu *.Mask))
  (pad 19 thru_hole oval (at 25.4 50.8 90) (size 1.6 1.6) (drill 0.8) (layers *.Cu *.Mask))
  (pad 4 thru_hole oval (at 7.62 -2.54 90) (size 1.6 1.6) (drill 0.8) (layers *.Cu *.Mask))
  (pad 20 thru_hole oval (at 22.86 50.8 90) (size 1.6 1.6) (drill 0.8) (layers *.Cu *.Mask))
  (pad 5 thru_hole oval (at 10.16 -2.54 90) (size 1.6 1.6) (drill 0.8) (layers *.Cu *.Mask))
  (pad 21 thru_hole oval (at 20.32 50.8 90) (size 1.6 1.6) (drill 0.8) (layers *.Cu *.Mask))
  (pad 6 thru_hole oval (at 12.7 -2.54 90) (size 1.6 1.6) (drill 0.8) (layers *.Cu *.Mask))
  (pad 22 thru_hole oval (at 17.78 50.8 90) (size 1.6 1.6) (drill 0.8) (layers *.Cu *.Mask))
  (pad 7 thru_hole oval (at 15.24 -2.54 90) (size 1.6 1.6) (drill 0.8) (layers *.Cu *.Mask))
  (pad 23 thru_hole oval (at 13.72 50.8 90) (size 1.6 1.6) (drill 0.8) (layers *.Cu *.Mask))
  (pad 8 thru_hole oval (at 17.78 -2.54 90) (size 1.6 1.6) (drill 0.8) (layers *.Cu *.Mask))
  (pad 24 thru_hole oval (at 11.18 50.8 90) (size 1.6 1.6) (drill 0.8) (layers *.Cu *.Mask))
  (pad 9 thru_hole oval (at 22.86 -2.54 90) (size 1.6 1.6) (drill 0.8) (layers *.Cu *.Mask))
  (pad 25 thru_hole oval (at 8.64 50.8 90) (size 1.6 1.6) (drill 0.8) (layers *.Cu *.Mask))
  (pad 10 thru_hole oval (at 25.4 -2.54 90) (size 1.6 1.6) (drill 0.8) (layers *.Cu *.Mask))
  (pad 26 thru_hole oval (at 6.1 50.8 90) (size 1.6 1.6) (drill 0.8) (layers *.Cu *.Mask))
  (pad 11 thru_hole oval (at 27.94 -2.54 90) (size 1.6 1.6) (drill 0.8) (layers *.Cu *.Mask))
  (pad 27 thru_hole oval (at 3.56 50.8 90) (size 1.6 1.6) (drill 0.8) (layers *.Cu *.Mask))
  (pad 12 thru_hole oval (at 30.48 -2.54 90) (size 1.6 1.6) (drill 0.8) (layers *.Cu *.Mask))
  (pad 28 thru_hole oval (at 1.02 50.8 90) (size 1.6 1.6) (drill 0.8) (layers *.Cu *.Mask))
  (pad 13 thru_hole oval (at 33.02 -2.54 90) (size 1.6 1.6) (drill 0.8) (layers *.Cu *.Mask))
  (pad 29 thru_hole oval (at -1.52 50.8 90) (size 1.6 1.6) (drill 0.8) (layers *.Cu *.Mask))
  (pad 14 thru_hole oval (at 35.56 -2.54 90) (size 1.6 1.6) (drill 0.8) (layers *.Cu *.Mask))
  (pad 30 thru_hole oval (at -4.06 50.8 90) (size 1.6 1.6) (drill 0.8) (layers *.Cu *.Mask))
  (pad 15 thru_hole oval (at 35.56 50.8 90) (size 1.6 1.6) (drill 0.8) (layers *.Cu *.Mask))
  (pad 16 thru_hole oval (at 33.02 50.8 90) (size 1.6 1.6) (drill 0.8) (layers *.Cu *.Mask))
)
