(module Pin_Header_Straight_1x26_Pitch2.54mm_SMD (layer F.Cu) (tedit 5B0C8EA8)
  (descr "surface-mounted straight pin header, 1x26, 2.54mm pitch, single row, style 1 (pin 1 left)")
  (tags "Surface mounted pin header SMD 1x26 2.54mm single row style1 pin1 left")
  (attr smd)
  (fp_text reference H1_right1 (at 0 -34.08) (layer F.SilkS)
    (effects (font (size 1 1) (thickness 0.15)))
  )
  (fp_text value Conn_01x26 (at 0 34.08) (layer F.Fab)
    (effects (font (size 1 1) (thickness 0.15)))
  )
  (fp_line (start 1.27 33.02) (end -1.27 33.02) (layer F.Fab) (width 0.1))
  (fp_line (start -0.32 -33.02) (end 1.27 -33.02) (layer F.Fab) (width 0.1))
  (fp_line (start -1.27 -32.07) (end -0.32 -33.02) (layer F.Fab) (width 0.1))
  (fp_line (start 1.27 -33.02) (end 1.27 33.02) (layer F.Fab) (width 0.1))
  (fp_line (start -1.33 -33.08) (end 1.33 -33.08) (layer F.SilkS) (width 0.12))
  (fp_line (start -1.33 33.08) (end 1.33 33.08) (layer F.SilkS) (width 0.12))
  (fp_line (start 1.33 -33.08) (end 1.33 -29.97) (layer F.SilkS) (width 0.12))
  (fp_line (start -1.33 -33.08) (end -1.33 33.02) (layer F.SilkS) (width 0.12))
  (fp_line (start 1.33 32.51) (end 1.33 33.08) (layer F.SilkS) (width 0.12))
  (fp_line (start 1.33 -28.45) (end 1.33 -24.89) (layer F.SilkS) (width 0.12))
  (fp_line (start 1.33 -23.37) (end 1.33 -19.81) (layer F.SilkS) (width 0.12))
  (fp_line (start 1.33 -18.29) (end 1.33 -14.73) (layer F.SilkS) (width 0.12))
  (fp_line (start 1.33 -13.21) (end 1.33 -9.65) (layer F.SilkS) (width 0.12))
  (fp_line (start 1.33 -8.13) (end 1.33 -4.57) (layer F.SilkS) (width 0.12))
  (fp_line (start 1.33 -3.05) (end 1.33 0.51) (layer F.SilkS) (width 0.12))
  (fp_line (start 1.33 2.03) (end 1.33 5.59) (layer F.SilkS) (width 0.12))
  (fp_line (start 1.33 7.11) (end 1.33 10.67) (layer F.SilkS) (width 0.12))
  (fp_line (start 1.33 12.19) (end 1.33 15.75) (layer F.SilkS) (width 0.12))
  (fp_line (start 1.33 17.27) (end 1.33 20.83) (layer F.SilkS) (width 0.12))
  (fp_line (start 1.33 -33.02) (end 1.33 33.02) (layer F.SilkS) (width 0.12))
  (fp_line (start 1.33 27.43) (end 1.33 30.99) (layer F.SilkS) (width 0.12))
  (fp_line (start -1.33 -30.99) (end -1.33 -27.43) (layer F.SilkS) (width 0.12))
  (fp_line (start -1.33 -25.91) (end -1.33 -22.35) (layer F.SilkS) (width 0.12))
  (fp_line (start -1.33 -15.75) (end -1.33 -12.19) (layer F.SilkS) (width 0.12))
  (fp_line (start -1.33 -10.67) (end -1.33 -7.11) (layer F.SilkS) (width 0.12))
  (fp_line (start -1.33 -5.59) (end -1.33 -2.03) (layer F.SilkS) (width 0.12))
  (fp_line (start -1.33 -0.51) (end -1.33 3.05) (layer F.SilkS) (width 0.12))
  (fp_line (start -1.33 4.57) (end -1.33 8.13) (layer F.SilkS) (width 0.12))
  (fp_line (start -1.33 9.65) (end -1.33 13.21) (layer F.SilkS) (width 0.12))
  (fp_line (start -1.33 14.73) (end -1.33 18.29) (layer F.SilkS) (width 0.12))
  (fp_line (start -1.33 19.81) (end -1.33 23.37) (layer F.SilkS) (width 0.12))
  (fp_line (start -1.33 24.89) (end -1.33 28.45) (layer F.SilkS) (width 0.12))
  (fp_line (start -3.45 -33.55) (end -3.45 33.55) (layer F.CrtYd) (width 0.05))
  (fp_line (start -3.45 33.55) (end 3.45 33.55) (layer F.CrtYd) (width 0.05))
  (fp_line (start 3.45 33.55) (end 3.45 -33.55) (layer F.CrtYd) (width 0.05))
  (fp_line (start 3.45 -33.55) (end -3.45 -33.55) (layer F.CrtYd) (width 0.05))
  (fp_text user %R (at 0 0 90) (layer F.Fab)
    (effects (font (size 1 1) (thickness 0.15)))
  )
  (pad 1 smd rect (at 0 -31.75) (size 2.51 1) (layers F.Cu F.Paste F.Mask))
  (pad 3 smd rect (at 0 -26.67) (size 2.51 1) (layers F.Cu F.Paste F.Mask))
  (pad 5 smd rect (at 0 -21.59) (size 2.51 1) (layers F.Cu F.Paste F.Mask))
  (pad 7 smd rect (at 0 -16.51) (size 2.51 1) (layers F.Cu F.Paste F.Mask))
  (pad 9 smd rect (at 0 -11.43) (size 2.51 1) (layers F.Cu F.Paste F.Mask))
  (pad 11 smd rect (at 0 -6.35) (size 2.51 1) (layers F.Cu F.Paste F.Mask))
  (pad 13 smd rect (at 0 -1.27) (size 2.51 1) (layers F.Cu F.Paste F.Mask))
  (pad 15 smd rect (at 0 3.81) (size 2.51 1) (layers F.Cu F.Paste F.Mask))
  (pad 17 smd rect (at 0 8.89) (size 2.51 1) (layers F.Cu F.Paste F.Mask))
  (pad 19 smd rect (at 0 13.97) (size 2.51 1) (layers F.Cu F.Paste F.Mask))
  (pad 21 smd rect (at 0 19.05) (size 2.51 1) (layers F.Cu F.Paste F.Mask))
  (pad 23 smd rect (at 0 24.13) (size 2.51 1) (layers F.Cu F.Paste F.Mask))
  (pad 25 smd rect (at 0 29.21) (size 2.51 1) (layers F.Cu F.Paste F.Mask))
  (pad 2 smd rect (at 0 -29.21) (size 2.51 1) (layers F.Cu F.Paste F.Mask))
  (pad 4 smd rect (at 0 -24.13) (size 2.51 1) (layers F.Cu F.Paste F.Mask))
  (pad 6 smd rect (at 0 -19.05) (size 2.51 1) (layers F.Cu F.Paste F.Mask))
  (pad 8 smd rect (at 0 -13.97) (size 2.51 1) (layers F.Cu F.Paste F.Mask))
  (pad 10 smd rect (at 0 -8.89) (size 2.51 1) (layers F.Cu F.Paste F.Mask))
  (pad 12 smd rect (at 0 -3.81) (size 2.51 1) (layers F.Cu F.Paste F.Mask))
  (pad 14 smd rect (at 0 1.27) (size 2.51 1) (layers F.Cu F.Paste F.Mask))
  (pad 16 smd rect (at 0 6.35) (size 2.51 1) (layers F.Cu F.Paste F.Mask))
  (pad 18 smd rect (at 0 11.43) (size 2.51 1) (layers F.Cu F.Paste F.Mask))
  (pad 20 smd rect (at 0 16.51) (size 2.51 1) (layers F.Cu F.Paste F.Mask))
  (pad 22 smd rect (at 0 21.59) (size 2.51 1) (layers F.Cu F.Paste F.Mask))
  (pad 24 smd rect (at 0 26.67) (size 2.51 1) (layers F.Cu F.Paste F.Mask))
  (pad 26 smd rect (at 0 31.75) (size 2.51 1) (layers F.Cu F.Paste F.Mask))
)
